Last Name (student),First Name (student),Grade,Contact First Name,Contact Last Name,Contact Email,Phone,Phone2,Phone 3,Address,Add Ln 2,contacts.relationship,Advisor Name,Case Manager Name (SPED only)
Acosta,Alexandro,6,Alexandro,Acosta,alexacosta8309@gmail.com,(303)997-9707,(720)629-3980,,1890 S Lowell Blvd,"Denver, CO 80219",Father,Castanzo,
Acosta,Alexandro,6,Kristina,Acosta,KristinaTrujillo@ymail.com,(303)847-8158,(303)847-8158,(303)737-1073,1890 S Lowell Blvd,"Denver, CO 80219",Mother,Castanzo,
Acosta-Portillo,Oscar,6,Oscar,Acosta,acostagoscar@hotmail.com,(720)220-5491,(720)220-5491,,3047 S Zuni St,"Denver, CO 80236",Father,Thompson,
Acosta-Portillo,Oscar,6,Davis,Portillo,acostagoscar@hotmail.com,(720)254-0426,(720)220-5491,(720)220-5491,3047 S Zuni St,"Denver, CO 80236",Mother,Thompson,
Acosta-Portillo,Valeria,8,Oscar,Acosta,acostagoscar@hotmail.com,(720)220-5491,(720)220-5491,,3047 S Zuni St,"Denver, CO 80236",Father,Nelsen,McClellan
Acosta-Portillo,Valeria,8,Davis,Portillo,acostagoscar@hotmail.com,(720)254-0426,(720)220-5491,(720)220-5491,3047 S Zuni St,"Denver, CO 80236",Mother,Nelsen,McClellan
Agosto-Alamo,Jose,6,Margarita,Alamo,alamoamarg@gmail.com,(720)486-9046,(720)255-8866,(303)934-4070,1602 S Quitman St,"Denver, CO 80219-4449",Mother,Thompson,Zayas
Agosto-Alamo,Jose,6,Maximiliano,Avila,alamoamarg@gmail.com,,(720)486-9046,,1602 S Quitman St,"Denver, CO 80219-4449",Step-Father,Thompson,Zayas
Aguilar,Arnulfo,8,Monica,Arredondo,mguerraa8@gmail.com,,(720)338-5127,,1018 S Quitman St,"Denver, CO 80219-3204",Mother,Passenant,
Aguilar,Bernardo,7,Bernardo,Aguilar,,,(303)520-6885,,3285 S Bryant St #104,"Englewood, CO 80110-1989",Father,Solomon,Mohr
Aguilar,Bernardo,7,Maria,Aguilar,,(303)435-3774,(720)364-7685,,3285 S Bryant St #104,"Englewood, CO 80110-1989",Mother,Solomon,Mohr
Aguilar-Marquez,Ricardo,6,Ricardo,Aguilar,ricardo_aguilar12@yahoo.com,,(720)404-0768,,3209 W Kentucky Ave #A,"Denver, CO 80219",Father,Castanzo,
Aguilar-Marquez,Ricardo,6,Alicia,Marquez,,,(720)296-4975,,3209 W Kentucky Ave #A,"Denver, CO 80219",Mother,Castanzo,
Aguilar-Ramirez,Manuel,8,Teresa,Robles,msteresarobles42@gmail.com,,(720)421-3138,(303)936-0303,5855 W Hampden Ave #4301,"Denver, CO 80227",Mother,Pochette,McClellan
Aguirre,Julian,6,Fermin,Aguirre,,(720)503-2821,,,3440 W Kentucky Ave,"Denver, CO 80219",Father,Castanzo,
Aguirre,Julian,6,Brenda,Velazquez,velazquezbrenda71@gmail.com,,(720)982-0127,,3440 W Kentucky Ave,"Denver, CO 80219",Mother,Castanzo,
Aguirre-Aguirre,Alex,6,Melquiades,Aguirre,,,(720)226-3034,,4192 W Greenwood Pl,"Denver, CO 80236",Father,Burroughs,
Aguirre-Aguirre,Alex,6,Melva,Aguirre,jenrubalegio.ag@gmail.com,,(720)276-3849,,4192 W Greenwood Pl,"Denver, CO 80236",Mother,Burroughs,
Aguirre-Lopez,Alexander,8,Frecia,Lopez,frecialopez@hotmail.com,(720)451-6212,(720)447-0792,,227 S Canosa Ct,"Denver, CO 80219",Mother,Passenant,McClellan
Aguirre-Ortiz,Diego,6,Vicente,Aguirre-Barron,,,(720)338-8059,,3075 W Floyd Ave #108,"Englewood, CO 80110-7228",Father,Castanzo,
Aguirre-Ortiz,Diego,6,Carmen,Ortiz,cortiz2015@icloud.com,,(720)985-8435,(303)794-6484,3075 W Floyd Ave #108,"Englewood, CO 80110-7228",Mother,Castanzo,
Alfaro,Daniel,7,Victor,Alfaro,segovianof31405@msn.com,,(720)385-8713,,3480 W Hoye Pl,"Denver, CO 80219",Father,Gish,
Alfaro,Daniel,7,Victor,Alfaro,segovianof31405@msn.com,,(720)385-8713,,4332 S Washington St,"Englewood, CO 80113-5848",Father,Gish,
Alfaro,Daniel,7,Sheena,Bustamante,sbustamante0629@gmail.com,,(720)436-7745,(303)524-6350x8051526,3480 W Hoye Pl,"Denver, CO 80219",Mother,Gish,
Alfaro,Daniel,7,Sheena,Bustamante,sbustamante0629@gmail.com,,(720)436-7745,(303)524-6350x8051526,4332 S Washington St,"Englewood, CO 80113-5848",Mother,Gish,
Almaraz-Ramirez,Barbara,7,Oscar,Almaraz,,,(720)429-8638,,3400 S Lowell Blvd #4-105,"Denver, CO 80236-2414",Father,Haserodt,
Almaraz-Ramirez,Barbara,7,Gabriela,Ramirez,gabyramirez91@gmail.com,(720)366-0932,,,3400 S Lowell Blvd #4-105,"Denver, CO 80236-2414",Mother,Haserodt,
Alva-Caraveo,Edwin,6,Maria,Caraveo,CaraveoMaria@gmail.com,,(720)422-5501,(303)779-1234,3131 W Mexico Ave #F10,"Denver, CO 80219",Mother,Goldberg,
Alvarez,Marlene,7,Maribel,Alvarez,marlenealvarez0516@gmail.com,,(720)490-9904,,3101 S Federal Blvd #D3,"Denver, CO 80236-2774",Mother,King,
Alvarez,Nevaeh,6,Ricky,Alvarez,,,(303)937-1471,,21 Hazel Ct,"Denver, CO 80219-1526",Father,Knox,
Alvarez,Nevaeh,6,Candis,Sanchez,candismia89@gmail.com,(303)521-8152,(720)255-6836,,21 Hazel Ct,"Denver, CO 80219-1526",Mother,Knox,
Amador-Ortega,Evelyn,6,Laura,Ortega-Flores,lauraortega909@gmail.com,(720)385-8255,(720)385-8255,(720)385-8255,2958 W Mexico Ave,"Denver, CO 80219",Mother,Dendle,
Amaya-Meza,Jaelyn,6,Jorge,Amaya,,,(303)478-5441,,61 S Quitman St,"Denver, CO 80219",Father,Izaguirre,Zayas
Amaya-Meza,Jaelyn,6,Nancy,Meza,,,(303)478-7804,,61 S Quitman St,"Denver, CO 80219",Mother,Izaguirre,Zayas
Andrade-Gonzalez,Cristian,8,Reymundo,Andrade-Yanez,,(720)298-8319,(720)900-9033,,2325 S Irving St,"Denver, CO 80219-5475",Father,Passenant,
Andrade-Gonzalez,Cristian,8,Angelica,Gonzalez-Franco,,,(720)298-8319,,2325 S Irving St,"Denver, CO 80219-5475",Mother,Passenant,
Aragon,Leonard,6,Leonard,Aragon,trel2006@hotmail.com,,(720)318-3197,,3550 S Harlan St #322,"Denver, CO 80235-2709",Father,Burroughs,
Aragon,Leonard,6,Maria,Aragon,maragon@arcthrift.com,(720)299-0580,(720)299-0580,(303)231-9222x1103,3550 S Harlan St #322,"Denver, CO 80235-2709",Mother,Burroughs,
Arambula,Daisy,6,Felipe,Arambula-Garcia,,,(720)297-1559,,139 S Julian St,"Denver, CO 80219",Father,Dendle,
Arambula,Daisy,6,Anabel,Olivas-Gonzalez,anabarm@aol.com,,(720)220-0951,,139 S Julian St,"Denver, CO 80219",Mother,Dendle,
Arambula-Olivas,Angelica,8,Felipe,Arambula-Garcia,,,(720)297-1559,,139 S Julian St,"Denver, CO 80219",Father,Coszalter,
Arambula-Olivas,Angelica,8,Anabel,Olivas-Gonzalez,anabarm@aol.com,,(720)220-0951,,139 S Julian St,"Denver, CO 80219",Mother,Coszalter,
Arellano,Mike,7,Monica,Rivera-Rivas,riveramonica2011@gmail.com,,(720)620-0021,,4501 W Kentucky Ave #77,"Denver, CO 80219",Mother,Solomon,
Arias-Duarte,Emiliano,8,Juvenal,Arias,,(303)472-5391,(720)434-1868,(303)472-5391,1585 S Clay St,"Denver, CO 80219",Father,Mulkey,
Arias-Duarte,Emiliano,8,Veronica,Duarte,veonicaduarte41@gmail.com,(303)472-5391,(720)620-1011,(303)744-9711,1585 S Clay St,"Denver, CO 80219",Mother,Mulkey,
Armendariz Coronado,Dayanara,7,Claudia,Coronado-Ibarra,claudianara821@gmail.com,(720)272-1152,(720)891-5338,,1501 S Decatur St,"Denver, CO 80219",Mother,King,
Arriaga-Arcos,Edwin,6,Alma,Arcos,,(720)882-6268,(720)364-9752,,3128 S Joplin Ct,"Aurora, CO 80013-1745",Mother,Castanzo,
Arriaga-Arcos,Edwin,6,Domitilo,Arriaga,,,(720)364-9752,,3128 S Joplin Ct,"Aurora, CO 80013-1745",Father,Castanzo,
Avalos-Cervantes,Jimmy,8,Jaime,Avalos,,,(720)382-6621,,2501 W Yale Ave,"Denver, CO 80219",Father,Passenant,
Avalos-Cervantes,Jimmy,8,Ericka,Cervantes,,,(720)261-6741,,2501 W Yale Ave,"Denver, CO 80219",Mother,Passenant,
Avila,Matthew,6,Liliana,Martinez,martinezlili55@yahoo.com,,(720)525-6224,,3487 W 13th Ave,"Denver, CO 80204",Mother,Castanzo,
Avila-Salmeron,Erick,6,Ana,Salmeron,liliasalmeron4@gmail.com,(720)882-6045,(720)676-2255,,2692 S Federal Blvd #108,"Denver, CO 80219",Mother,Castanzo,
Ayala,Naomi,8,Erika,Ayala,ayalaerika053@gmail.com,,(720)448-3639,(303)937-4400x1,2601 S Julian St,"Denver, CO 80219-5832",Mother,Elledge,
Ayala,Naomi,8,Jorge,Ayala,jayala53@yahoo.com,,(323)807-0104,(303)288-1939x4,2601 S Julian St,"Denver, CO 80219-5832",Father,Elledge,
Baca-Sepulveda,Aidan,7,Paul,Baca,,,(720)434-2812,,1037 Quitman St,"Denver, CO 80204-3054",Father,Dubay,
Baca-Sepulveda,Aidan,7,Ava,Sepulveda,,(303)236-9400,(303)478-1354,(303)236-9400x9405,1037 Quitman St,"Denver, CO 80204-3054",Mother,Dubay,
Banuelos-Villagrana,Maritza,8,Norma,Banuelos-Villagrana,maritzabv5@gmail.com,,(720)288-7428,,593 S Meade St,"Denver, CO 80219-2656",Mother,Coszalter,
Barbour-Hollis,De'Naja,6,Delia,Barbour-Wyatt,antoinettewyatt33@hotmail.com,,(720)357-8108,,3025 S Decatur St #3,"Denver, CO 80236",Mother,Knox,
Barela,Evanaiah,7,David,Barela,,,(720)350-5496,(303)933-9900,1352 W 46th Ave,"Denver, CO 80211-2329",Father,Abbott,
Barela,Evanaiah,7,David,Barela,,,(720)350-5496,(303)933-9900,2390 W Bayaud Ave,"Denver, CO 80223",Father,Abbott,
Barela,Evanaiah,7,Francine,Barela,francine_chvz@yahoo.com,,(720)366-1790,(303)914-2060x2091,1352 W 46th Ave,"Denver, CO 80211-2329",Mother,Abbott,
Barela,Evanaiah,7,Francine,Barela,francine_chvz@yahoo.com,,(720)366-1790,(303)914-2060x2091,2390 W Bayaud Ave,"Denver, CO 80223",Mother,Abbott,
Barrera-Aguilar,Lesley,6,Rosa,Aguilar,roalm@q.com,,(720)621-5780,,495 S Quitman St,"Denver, CO 80219",Mother,Dendle,
Barrera-Aguilar,Lesley,6,Jose,Barrera,,(720)621-5780,(720)364-8815,(720)364-8815,495 S Quitman St,"Denver, CO 80219",Father,Dendle,
Barrios-Sanchez,Hellen,6,Miguel,Barrios,,,(720)377-5872,(303)680-3909,826 S Shoshone St,"Denver, CO 80223",Father,Dendle,
Barrios-Sanchez,Hellen,6,Zenaida,Sanchez,mb1chato@gmail.com,(720)377-5872,(720)227-6436,(720)229-8391,826 S Shoshone St,"Denver, CO 80223",Mother,Dendle,
Bartolo-Bardales,Juan,6,Veronica,Bardales-Coronado,vero2878.vb@gmail.com,,(720)544-9079,,1314 S Patton Ct,"Denver, CO 80219-3825",Mother,Castanzo,Zayas
Bartolo-Bardales,Juan,6,Ernesto,Bartolo,,,(720)218-2734,(720)218-2734,1314 S Patton Ct,"Denver, CO 80219-3825",Father,Castanzo,Zayas
Beas-Vidrio,Emmanuel,7,Alberto,Beas,cristianbeas4@gmail.com,,(720)234-4409,,3485 W Virginia Ave,"Denver, CO 80219",Father,Dubay,
Beas-Vidrio,Emmanuel,7,Juanita,Vidrio,juanitavidrio@yahoo.com,,(720)334-3994,,3485 W Virginia Ave,"Denver, CO 80219",Mother,Dubay,
Becerra,Ethan,7,Victor,Becerra,,,(720)767-0398,,1585 S Decatur St,"Denver, CO 80219-4735",Father,Gish,
Becerra-Gracida,Alyssa,8,Victor,Becerra,,,(720)767-0398,,1585 S Decatur St,"Denver, CO 80219-4735",Father,Elledge,
Becerra-Gracida,Alyssa,8,Ruth,Gracida,ruthgracida50@gmail.com,,(720)572-9925,,1585 S Decatur St,"Denver, CO 80219-4735",Mother,Elledge,
Belmontes-Guevara,Dulce,8,Victor,Belmontes,,(720)365-5640,(720)289-2433,(303)922-6389,244 S Hazel Ct,"Denver, CO 80219",Father,Elledge,
Belmontes-Guevara,Dulce,8,Eugenia,Guevara,eberbelmontes@yahoo.com,,(720)365-5640,(303)761-0260,244 S Hazel Ct,"Denver, CO 80219",Mother,Elledge,
Beltran-Zavala,Giovani,8,Rafael,Beltran-Borrego,,,(720)629-1352,,1477 W Byers Pl,"Denver, CO 80223-1725",Father,Pochette,
Beltran-Zavala,Giovani,8,Beatriz,Zavala-Carreon,b.lore.zava@gmail.com,(720)629-1352,(720)276-0451,,1477 W Byers Pl,"Denver, CO 80223-1725",Mother,Pochette,
Berrum-Ramirez,Vanessa,8,Patricia,Berrum,patriciaberrum1250@comcast.net,,(720)278-1904,(720)278-9091,1250 S Julian St,"Denver, CO 80219",Mother,Infanzon,
Bilbrey,Alexander,8,Chris,Bilbrey,cricky1223@comcast.net,,(303)523-2897,,4424 W Alameda Ave,"Denver, CO 80219",Father,Parks,
Bilbrey,Alexander,8,Dawn,Echard,dechard1215@aol.com,,(720)252-1480,,4424 W Alameda Ave,"Denver, CO 80219",Mother,Parks,McClellan
Bilbrey,Tyler,6,Chris,Bilbrey,cricky1223@comcast.net,,(303)523-2897,,4424 W Alameda Ave,"Denver, CO 80219",Father,Castanzo,Zayas
Bilbrey,Tyler,6,Dawn,Echard,dechard1215@aol.com,,(720)252-1480,,4424 W Alameda Ave,"Denver, CO 80219",Mother,Castanzo,Zayas
Bonilla,Nevaeh,6,Cynthia,Toledo,cynth.toledo@gmail.com,,(303)960-8749,,4414 W Kentucky Ave #D,"Denver, CO 80219",Mother,Knox,
Bonilla-Valenzuela,Kevin,8,Maria,Bonilla,,(303)936-1951,(720)525-6963,,2040 S Federal Blvd #4,"Denver, CO 80219",Mother,Parks,McClellan
Bonilla-Valenzuela,Kevin,8,Miguel,Bonilla-Reyes,,,(970)815-2272,,2040 S Federal Blvd #4,"Denver, CO 80219",Father,Parks,McClellan
Bruno,Luis,8,Norma,Collado,,(720)645-0362,(720)645-0363,,2709 S Decatur St,"Denver, CO 80236-2608",Mother,Passenant,
Bruno-Collado,Yazury,8,Norma,Collado,,(720)645-0362,(720)645-0363,,2709 S Decatur St,"Denver, CO 80236-2608",Mother,Strickland,
Bruno-Saucedo,Miguel,6,Azucena,Saucedo-Regalado,lorenasaucedomartinez@hotmail.com,,(720)298-1171,,2200 S Irving St,"Denver, CO 80219",Mother,Burroughs,
Buendia-Terrones,Yasmin,8,Christopher,Gutierrez,,,(720)410-4735,,235 S Hazel Ct,"Denver, CO 80219-2026",Step-Father,Elledge,
Buendia-Terrones,Yasmin,8,Angelica,Terrones-Favela,,,(720)416-0103,,235 S Hazel Ct,"Denver, CO 80219-2026",Mother,Elledge,
Burgos-Lino,Miguel,7,Ruperto,Burgos,,,(720)384-9731,,3488 W Alaska Pl,"Denver, CO 80219-2756",Father,Gish,
Burgos-Lino,Miguel,7,Vianey,Lino,,,(720)842-2541,,3488 W Alaska Pl,"Denver, CO 80219-2756",Mother,Gish,
Burks,Jaila,6,Lacy,Smith,,,(303)994-9682,,154 S Zang Way #106,"Lakewood, CO 80228-1934",Mother,Knox,
Burks,Jaila,6,Lacy,Smith,,,(303)994-9682,,2785 S Linley Ct,"Denver, CO 80236-2516",Mother,Knox,
Bustamante-Escobar,Gael,7,Sandra,Escobar-Garcia,,,(720)384-8560,,5855 W Hampden Ave #1205,"Denver, CO 80227",Mother,Lusa,
Cabero-Castro,Eduardo,6,Roberto,Cabero,,,(720)544-1246,,1885 S Vrain St,"Denver, CO 80219",Father,Goldberg,Zayas
Cabero-Castro,Eduardo,6,Maria,Castro,,,(720)544-1246,,1885 S Vrain St,"Denver, CO 80219",Mother,Goldberg,Zayas
Campos-Galvan,Jaycee,7,Jorge,Campos,jorgeblcsvb@gmail.com,(720)518-1738,,,3131 W Mexico Ave #N9,"Denver, CO 80219",Father,Lusa,
Campos-Galvan,Jaycee,7,Cinthya,Galvan,cindylouejc.1208@gmail.com,,(720)590-0859,,3131 W Mexico Ave #N9,"Denver, CO 80219",Mother,Lusa,
Campos-Rivera,Juan,6,Juan,Campos,,,(720)380-6014,,2767 W Water Ave,"Denver, CO 80219-6019",Father,Burroughs,
Campos-Rivera,Juan,6,Diana,Rivera,dianarivera89@gmail.com,,(720)319-5586,(303)390-2370x0,2767 W Water Ave,"Denver, CO 80219-6019",Mother,Burroughs,
Campuzano-Diaz,Luis,8,Jose,Campuzano,,,(303)618-0449,,589 S Meade St,"Denver, CO 80219",Father,Mulkey,
Campuzano-Diaz,Luis,8,Santa,Diaz,santadiaz122@gmail.com,,(303)618-6425,,589 S Meade St,"Denver, CO 80219",Mother,Mulkey,
Cantor,America,6,Ernesto,Cantor,,,(720)252-3755,,1065 S Bryant St,"Denver, CO 80219",Father,Dendle,
Cantor,America,6,Lourdes,Cervacio,,,(720)434-5909,,1065 S Bryant St,"Denver, CO 80219",Mother,Dendle,
Caraballo-Juarez,Alessandra,7,Deyanira,Juarez,faerie.princess.alessandra@gmail.com,(720)280-3968,(720)280-3968,(303)232-2436,2800 W Bates Ave,"Denver, CO 80236",Mother,Dunn,
Cardenas,Eniah-Lanae,7,Bernardino,Cardenas,bmcardenas78@gmail.com,,(720)461-9706,,1601 S Mabry Way,"Denver, CO 80219-4536",Father,Haserodt,
Cardenas,Eniah-Lanae,7,Erika,Martinez,martinezaria16@gmail.com,,(303)429-0278,,1601 S Mabry Way,"Denver, CO 80219-4536",Mother,Haserodt,
Castanon-Gonzalez,Vanessa,6,Erendira,Gonzalez,endy1212@icloud.com,,(720)366-4463,,1333 S Zuni St,"Denver, CO 80223",Mother,Hatcher,
Castillo-Perez,Giselle,8,Beatriz,Perez,betyperez638@hotmail.com,(720)755-1402,(720)506-0380,(303)733-3979,3050 W Floyd Ave #10,"Englewood, CO 80110-7204",Mother,Nelsen,
Castillo-Ramos,Oscar,6,Oscar,Castillo Castaneda,,,(720)309-3441,,3209 S Lowell Blvd,"Denver, CO 80236",Father,Thompson,Zayas
Castillo-Ramos,Oscar,6,Martha,Ramos-Vazquez,anguelica1967@gmail.com,,(720)327-4172,,3209 S Lowell Blvd,"Denver, CO 80236",Mother,Thompson,Zayas
Castorena-Garcia,David,7,Eduardo,Castorena,,,(714)581-2881,,2142 S Meade St,"Denver, CO 80219",Father,Solomon,Mohr
Castorena-Garcia,David,7,Lucia,Castorena,eduardolucya@gmail.com,,,,2142 S Meade St,"Denver, CO 80219",Mother,Solomon,Mohr
Castorena-Pena,Aileen,8,Luis,Castorena,,,(720)394-5411,,781 S Wolff St,"Denver, CO 80219-2353",Father,Strickland,
Castorena-Pena,Aileen,8,Gabriela,Pena,gabyfly76@gmail.com,,(720)394-4624,,781 S Wolff St,"Denver, CO 80219-2353",Mother,Strickland,
Castro,Tylina,6,Shawna,Castro,shawna303@gmail.com,,(720)401-3892,,2265 S King St,"Denver, CO 80219",Mother,Knox,Zayas
Castro,Zachary,6,Shawna,Castro,shawna303@gmail.com,,(720)401-3892,,2265 S King St,"Denver, CO 80219",Mother,Thompson,Zayas
Cedillo,Bianca,8,Yolanda,Coronado,yolandascoronado@gmail.com,,(720)569-3378,,1450 S Eliot St,"Denver, CO 80219-4719",Mother,Coszalter,
Cedillo,Bianca,8,Yolanda,Coronado,yolandascoronado@gmail.com,,(720)569-3378,,221 S Dale Ct,"Denver, CO 80219",Mother,Coszalter,
Cedillo,Jenahya,6,Yolanda,Coronado,yolandascoronado@gmail.com,,(720)569-3378,,1450 S Eliot St,"Denver, CO 80219-4719",Mother,Knox,
Cedillo,Jenahya,6,Yolanda,Coronado,yolandascoronado@gmail.com,,(720)569-3378,,221 S Dale Ct,"Denver, CO 80219",Mother,Knox,
Cervantes-Perez,Brandon,6,Enrique,Cervantes,,,(720)209-4604,(303)770-1966,3273 W Dakota Ave,"Denver, CO 80219-2856",Father,Goldberg,
Cervantes-Perez,Brandon,6,Yuliana,Perez,yulianac47@gmail.com,,(720)209-2251,,3273 W Dakota Ave,"Denver, CO 80219-2856",Mother,Goldberg,
Chacon,Brooklyn,8,Nick,Chacon,nikki_chacon@yahoo.com,(303)903-9152,(303)903-9152,(877)600-3911x3031565,3836 S Harlan St,"Denver, CO 80235-2927",Father,Nelsen,
Chacon,Brooklyn,8,Nick,Chacon,nikki_chacon@yahoo.com,(303)903-9152,(303)903-9152,(877)600-3911x3031565,850 Inca St #C,"Denver, CO 80204-4349",Father,Nelsen,
Chacon,Brooklyn,8,Amanda,Vigil,amandavigil83@yahoo.com,,(720)298-4202,,3836 S Harlan St,"Denver, CO 80235-2927",Mother,Nelsen,
Chacon,Brooklyn,8,Amanda,Vigil,amandavigil83@yahoo.com,,(720)298-4202,,850 Inca St #C,"Denver, CO 80204-4349",Mother,Nelsen,
Chacon-Chavarria,Arturo,7,Arturo,Chacon-Corral,ahchacon68@aol.com,,(720)233-6794,,1350 S Patton Ct,"Denver, CO 80219-3825",Father,Lusa,
Chacon-Chavarria,Arturo,7,Leslie,Chavarria-Chacon,lesly0711@hotmail.com,,(720)288-5030,,1350 S Patton Ct,"Denver, CO 80219-3825",Mother,Lusa,
Chacon-Chavarria,Kiara,6,Arturo,Chacon-Corral,ahchacon68@aol.com,,(720)233-6794,,1350 S Patton Ct,"Denver, CO 80219-3825",Father,Dendle,
Chacon-Chavarria,Kiara,6,Leslie,Chavarria-Chacon,lesly0711@hotmail.com,,(720)288-5030,,1350 S Patton Ct,"Denver, CO 80219-3825",Mother,Dendle,
Chacon-Rosas,Jonathan,8,Pablo,Chacon,,(720)237-9099,(720)207-7086,(720)490-8721,3950 W Colorado Ave,"Denver, CO 80219",Father,Mulkey,
Chacon-Rosas,Jonathan,8,Sara,Chacon-Rosas,,,(720)207-7086,,3950 W Colorado Ave,"Denver, CO 80219",Mother,Mulkey,
Chavez-Bernal,Lizeth,8,Alberta,Bernal,,(720)987-1597,(720)341-6011,,3943 W Ohio Ave,"Denver, CO 80219",Mother,Coszalter,
Chavez-Ibarra,Joel,7,Ursula,Ibarra,ursuibarra@hotmail.com,(303)623-2816,(303)623-2816,,2740 W Harvard Ave,"Denver, CO 80219",Mother,Gish,
Cilianu-Martines,Jasiyah,7,Calin,Cilianu,stelacilianu@gmail.com,,(720)206-4099,(720)206-4099,2242 S Raleigh St,"Denver, CO 80219-5141",Father,Dubay,
Cilianu-Martines,Jasiyah,7,Calin,Cilianu,stelacilianu@gmail.com,,(720)206-4099,(720)206-4099,34 S Marshall St,"Lakewood, CO 80226-2124",Father,Dubay,
Cilianu-Martines,Jasiyah,7,Calin,Cilianu,stelacilianu@gmail.com,,(720)206-4099,(720)206-4099,5564 Perth Ct,"Denver, CO 80249",Father,Dubay,
Cisneros,Adrian,8,Ismael,Cisneros,ish1083@yahoo.com,,(720)635-3929,,1895 S Paseo Way,"Denver, CO 80219",Father,Glasspoole,
Cisneros,Adrian,8,Ericka,Jurado,juradoericka88@gmail.com,,(303)887-4385,,1895 S Paseo Way,"Denver, CO 80219",Mother,Glasspoole,
Clarvoe,Jordan,7,Jon,Clarvoe,,,(720)854-5884,,1131 S Navajo St,"Denver, CO 80223-3016",Father,Dubay,
Clarvoe,Jordan,7,Sarah,Leyba,sleyba85@gmail.com,,(720)499-9538,,1131 S Navajo St,"Denver, CO 80223-3016",Mother,Lusa,
Clarvoe,Romeo,8,Jon,Clarvoe,,,(720)854-5884,,1131 S Navajo St,"Denver, CO 80223-3016",Father,Mulkey,
Clarvoe,Romeo,8,Sarah,Leyba,sleyba85@gmail.com,,(720)499-9538,,1131 S Navajo St,"Denver, CO 80223-3016",Mother,Mulkey,
Contreras,Melanie,7,Jose,Contreras,boxjose@gmail.com,,(303)994-3042,(303)744-2125,2646 S Green Ct,"Denver, CO 80219",Father,Haserodt,
Contreras,Melanie,7,Jose,Contreras,boxjose@gmail.com,,(303)994-3042,(303)744-2125,4635 W Alaska Pl,"Denver, CO 80219",Father,Haserodt,
Contreras,Melanie,7,Margarita,Contreras,margs1626@gmail.com,,(720)434-9361,,2646 S Green Ct,"Denver, CO 80219",Aunt,Haserodt,
Contreras,Melanie,7,Margarita,Contreras,margs1626@gmail.com,,(720)434-9361,,4635 W Alaska Pl,"Denver, CO 80219",Aunt,Haserodt,
Contreras,Melanie,7,Martha,Espinoza,mybabymelanie@yahoo.com,,(720)621-2938,,2646 S Green Ct,"Denver, CO 80219",Mother,Haserodt,
Contreras,Melanie,7,Martha,Espinoza,mybabymelanie@yahoo.com,,(720)621-2938,,4635 W Alaska Pl,"Denver, CO 80219",Mother,Haserodt,
Cordova-Dominguez,Andrew,7,Edgar,Cordova-Santos,,(720)360-6150x,,,3310 S Lowell Blvd,"Denver, CO 80236-2423",Father,Dubay,
Cordova-Dominguez,Andrew,7,Silvia,Dominguez-Perez,Silviadominguez2013@gmail.com,(720)836-6150x,(720)366-3691,,3310 S Lowell Blvd,"Denver, CO 80236-2423",Mother,Dubay,
Peacock,Katrina,8,Lynn,Restvedt,lrestvedt@yahoo.com,,(720)641-3256,(303)758-1210,3200 W Floyd Ave #16,"Englewood, CO 80110-7217",Mother,Infanzon,
Peralta-Estrada,Jessie,7,Gloria,Estrada,,,(720)989-0437,,1254 S Beach Ct,"Denver, CO 80219",Mother,Lusa,
Corona,Yhaiza,6,Cecilia,Hageman,ceciliahageman@yahoo.com,(720)220-9582,(720)212-4701,,4390 W Exposition Ave #207,"Denver, CO 80219-2452",Mother,Hatcher,
Corral,Emily,7,Rosalie,Corral,rcorral0506@hotmail.com,(303)922-5628,(720)436-6940,(303)738-8500x203,820 S Stuart St,"Denver, CO 80219",Mother,Dunn,
Cortes,Dan,7,Claudia,Adame-Cordova,,,(303)847-9345,,1505 S Wolcott Ct,"Denver, CO 80219",Mother,Gish,
Cortes,Dan,7,Saul,Cortes-Gutierrez,,,(303)718-8037,(303)478-4806,1505 S Wolcott Ct,"Denver, CO 80219",Father,Gish,
Cortez,Anthony,8,Joe,Cortez,,,(720)329-0526,,1610 S Wolff St,"Denver, CO 80219",Father,Passenant,
Cortez,Anthony,8,Joe,Cortez,,,(720)329-0526,,3300 W Florida Ave #45,"Denver, CO 80219",Father,Passenant,
Cortez,Anthony,8,Alisha,Quintana,acortez@vivage.com,,(720)483-3593,(303)922-1169,1610 S Wolff St,"Denver, CO 80219",Mother,Passenant,
Cortez,Anthony,8,Alisha,Quintana,acortez@vivage.com,,(720)483-3593,(303)922-1169,3300 W Florida Ave #45,"Denver, CO 80219",Mother,Passenant,
Cruz,Devan,8,Antoinette,Mayer,,,(720)707-5251,,3425 W Nevada Pl #204,"Denver, CO 80219-2700",Mother,Elledge,
Cruz,Devan,8,Sonny,Mayer,,,(720)384-9838,,3425 W Nevada Pl #204,"Denver, CO 80219-2700",Father,Elledge,
Cruz-Baranda,Alex,7,Gaudencia,Cruz-Baranda,,(720)403-5084,(303)946-8659,,2775 S Federal Blvd #323,"Denver, CO 80236",Mother,Gish,
Cruz-Minero,Juan,6,Juan,Hernandez,,,(720)451-3635,,2455 W Vassar Ave,"Denver, CO 80219",Step-Father,Burroughs,
Cruz-Minero,Juan,6,Mariana,Minero,,,(720)829-0436,,2455 W Vassar Ave,"Denver, CO 80219",Mother,Burroughs,
Cruz-Nava,Jose,8,Jose,Cruz,,,(719)822-8910,,2692 S Federal Blvd #110,"Denver, CO 80219",Father,Pochette,
Cruz-Nava,Jose,8,Juana,Nava,,,(303)949-2222,,2692 S Federal Blvd #110,"Denver, CO 80219",Mother,Pochette,
Delaney,Ryan,6,John,Delaney,johndelaney2011@me.com,,(720)364-9162,,3006 S Wolff St,"Denver, CO 80236",Father,Burroughs,
Delaney,Ryan,6,Rosa,Delaney,rossydelaney0106@gmail.com,(720)341-8600,(720)341-8600,,3006 S Wolff St,"Denver, CO 80236",Mother,Burroughs,
Dena-Saenz,Bryan,7,Alma,Saenz,,(720)481-7231,(720)675-0270,,3401 W Gill Pl,"Denver, CO 80219",Mother,Dubay,
DePaolo,Azariah,6,Amy,Lucero,amyluv454@gmail.com,(720)629-6783,(720)551-2609,(303)216-1113,2761 W Iliff Ave,"Denver, CO 80219-5925",Mother,Izaguirre,
DeSantiago-Fernandez,Oliver,6,Braulio,DeSantiago,bdbabis@gmail.com,,(720)341-8910,(303)751-1478,247 S King St,"Denver, CO 80219-1925",Father,Thompson,
DeSantiago-Fernandez,Oliver,6,Alejandra,Fernandez,alejandraf0112@gmail.com,(303)922-6771,(720)280-5584,(720)341-8910,247 S King St,"Denver, CO 80219-1925",Mother,Thompson,
DeSantiago-Lara,Giovanny,7,Valentin,DeSantiago,,,(303)582-4454,(303)582-4453,1495 S Tennyson St,"Denver, CO 80219",Father,Lusa,
DeSantiago-Lara,Giovanny,7,Mayra,Quiroz,,(303)922-6771,(303)582-4454,,1495 S Tennyson St,"Denver, CO 80219",Mother,Lusa,
DeSantiago-Zavala,Ailyn,6,Brenda,Zavala,Zavalaebrenda@yahoo.com,(720)999-3535,(720)938-3145,,221 S Lowell Blvd,"Denver, CO 80219-1935",Mother,Dendle,
Diaz-Jacobo,Samantha,6,Jairo,Diaz,,,(720)882-1055,(303)744-9100,1242 S Seneca Way,"Denver, CO 80223",Father,Dendle,
Diaz-Jacobo,Samantha,6,Cynthia,Jacobo,cjacobo84@gmail.com,,(720)404-2637,(720)778-3090,1242 S Seneca Way,"Denver, CO 80223",Mother,Dendle,
Diaz-Villalba,Brandon,6,Silverio,Diaz-Hernandez,Silver076@hotmail.com,,(720)234-4534,,190 S Clay St,"Denver, CO 80219",Father,Goldberg,Zayas
Diaz-Villalba,Brandon,6,Maria,Villalba-Reyes,,(720)291-2609,(720)291-2609,,190 S Clay St,"Denver, CO 80219",Mother,Goldberg,Zayas
Diaz-Villalba,Brayan,8,Silverio,Diaz-Hernandez,Silver076@hotmail.com,,(720)234-4534,,190 S Clay St,"Denver, CO 80219",Father,Glasspoole,
Diaz-Villalba,Brayan,8,Maria,Villalba-Reyes,,(720)291-2609,(720)291-2609,,190 S Clay St,"Denver, CO 80219",Mother,Glasspoole,
Domingues-Cartagena,Yonatan,7,Maria,Cartagena,,,(720)907-5073,,2692 S Federal Blvd #212,"Denver, CO 80219",Mother,Moreno,
Dominguez,Norma,6,Isidro,Dominguez,,(720)296-2346,(720)436-1678,,2575 S Lowell Blvd,"Denver, CO 80219-5734",Father,Santare,Zayas
Dominguez,Norma,6,Jeorgina,Dominguez,paulajeodominguez303@yahoo.com,(720)366-3948,,,2575 S Lowell Blvd,"Denver, CO 80219-5734",Mother,Santare,Zayas
Duarte,Josalene,8,Shae,Aguinaldo,Shaeaguinaldo@gmail.com,,(303)668-2481,,1213 S Perry St,"Denver, CO 80219-3830",Step-Mother,Nelsen,
Duarte,Josalene,8,Nathan,Trieu,nathantrieu303@gmail.com,,(303)396-8232,(303)396-8232,1213 S Perry St,"Denver, CO 80219-3830",Father,Nelsen,
Duong,Trang,7,Huong,Duong,lanhuong78co@yahoo.com,(303)877-9091,(720)280-0967,,2792 W Wesley Ave,"Denver, CO 80219-5932",Mother,Haserodt,
Duong,Vanessa,7,Hoang,Duong,hoangduong848@yahoo.com,,(303)883-5347,,1471 S King Ct,"Denver, CO 80219",Father,Haserodt,
Duong,Vanessa,7,Tram,Luong,TramLuong848@yahoo.com,(303)885-1485,(303)883-5347,,1471 S King Ct,"Denver, CO 80219",Mother,Haserodt,
Duran,Philyp,6,Christine,Duran,cduran0321@gmail.com,,(303)547-5561,,166 S Hooker St,"Denver, CO 80219-2030",Grandmother,Thompson,
Duran,Philyp,6,Jose,Duran,,,(303)547-5573,,166 S Hooker St,"Denver, CO 80219-2030",Grandfather,Thompson,
Eckes,Joe,8,Hilda,Eckes,hildabau@hotmail.com,(303)742-9287,(720)838-6466,,1630 S Vrain St,"Denver, CO 80219-4439",Mother,Mulkey,
Eckes,Joe,8,Tracy,Eckes,eckestools@comcast.net,,(720)252-4267,,1630 S Vrain St,"Denver, CO 80219-4439",Father,Mulkey,
Elias-Bardales,Jorge,8,Leticia,Bardales,letibardales@icloud.com,(303)934-3074,(303)934-3074,,1320 S Osceola St,"Denver, CO 80219-3817",Mother,Glasspoole,
Elias-Bardales,Jorge,8,Cesar,Elias,,,(303)994-3316,,1320 S Osceola St,"Denver, CO 80219-3817",Father,Glasspoole,
Elizondo,Anastasia,6,Frances,Martinez,francesmartinez81@yahoo.com,,(720)275-5435,,45 S Julian St,"Denver, CO 80219",Guardian,Knox,
Enciso-Madera,Leany,7,Horacio,Enciso,,,(720)447-2030,,2940 W Arkansas Ave #24,"Denver, CO 80219",Father,King,
Enciso-Madera,Leany,7,Maricela,Madera,,,(720)435-3387,,2940 W Arkansas Ave #24,"Denver, CO 80219",Mother,King,
Escamilla,Isabella,8,Jose,Escamilla,,,,,2897 S Stuart St,"Denver, CO 80236",Father,Strickland,
Escamilla,Isabella,8,Jessica,Redleaf,jessicaredleaf@yahoo.com,,(720)557-9748,,2897 S Stuart St,"Denver, CO 80236",Mother,Strickland,
Escamilla,Jose,7,Jose,Escamilla,,,,,2897 S Stuart St,"Denver, CO 80236",Father,Solomon,
Escamilla,Jose,7,Jessica,Redleaf,jessicaredleaf@yahoo.com,,(720)557-9748,,2897 S Stuart St,"Denver, CO 80236",Mother,Solomon,
Escamilla,Roberto,7,Vanessa,Abalos,vanessanabalos@gmail.com,(720)401-5918,(303)725-5007,,3180 S Federal Blvd #L1-1,"Denver, CO 80236",Mother,Dubay,
Escamilla,Roberto,7,Roberto,Escamilla,,,(720)347-2384,,3180 S Federal Blvd #L1-1,"Denver, CO 80236",Father,Dubay,
Escobedo,Jazlyn,6,Fernando,Escobedo,,,(805)506-1081,,671 S Stuart St,"Denver, CO 80219-2436",Father,Santare,
Escobedo,Jazlyn,6,Gladicela,Fombona,,,,,671 S Stuart St,"Denver, CO 80219-2436",Mother,Santare,
Escudero,Jairo,6,Genaro,Escudero,,,(303)676-7642,,1175 S Vrain St,"Denver, CO 80219",Father,Thompson,
Escudero,Jairo,6,Ines,Escudero,,,(720)434-4996,,1175 S Vrain St,"Denver, CO 80219",Mother,Thompson,
Esparza-Martinez,Jazmin,8,Juan,Esparza,,,(303)620-6762,,5855 W Hampden Ave #5201,"Denver, CO 80227",Father,Infanzon,
Esparza-Martinez,Jazmin,8,Teodora,Martinez,,,(303)582-4940,,5855 W Hampden Ave #5201,"Denver, CO 80227",Mother,Infanzon,
Esparza-Ornelas,Aylin,7,Maria,Esparza,melecioesparza1021@gmail.com,,(720)628-7920,,3340 W Custer Pl,"Denver, CO 80219",Mother,Abbott,
Esparza-Ornelas,Aylin,7,Melecio,Esparza,,,(720)486-8950,,3340 W Custer Pl,"Denver, CO 80219",Father,Abbott,
Espinoza,Aaron,6,Lora,Espinoza,,(303)669-5921,,,3181 W Bails Pl,"Denver, CO 80219-4612",Grandmother,Burroughs,
Espinoza,Anika,7,Larissa,Espinoza,Lari_1989@icloud.com,,(720)451-6545,,2770 S Linley Ct,"Denver, CO 80236-2517",Mother,Dunn,
Espinoza-Navarro,Diego,7,Rodrigo,Espinoza,,,(720)467-1986,,1320 S Quitman St,"Denver, CO 80219-3744",Father,Lusa,
Espinoza-Navarro,Diego,7,Maria,Navarro,tachy1234@hotmail.com,,(720)309-4114,,1320 S Quitman St,"Denver, CO 80219-3744",Mother,Lusa,
Espinoza-Romero,Hilario,7,Allison,Romero,all101ice@gmail.com,,(720)809-9427,,3265 S Bryant  St #203,"Englewood, CO 80110-1988",Mother,Lusa,
Estrada-Valenzuela,Ryzeah,7,Lucila,Valenzuela,zeah213@gmail.com,(303)922-9609,(720)317-0089,,3296 W Dakota Ave,"Denver, CO 80219",Mother,Lusa,
Fierro-Moreno,Fernando,8,Maria,Moreno,selene.gonzalez97@gmail.com,(720)380-7929,(720)229-9540,(720)447-7453,3061 S Bryant St,"Denver, CO 80236",Mother,Mulkey,McClellan
Figueroa,Mariana,8,Oralia,Figueroa,oraliafigueroa061372@gmail.com,(720)347-5074,(720)346-3050,,2752 W 2nd Ave,"Denver, CO 80219",Mother,Coszalter,
Flores-Hernandez,Nick,6,Antonio,Flores,,,(720)717-9239,,771 S Wolff St,"Denver, CO 80219",Father,Goldberg,
Flores-Hernandez,Nick,6,Yurani,Hernandez,yuranih584@gmail.com,(720)717-9239,(720)309-6396,,771 S Wolff St,"Denver, CO 80219",Mother,Goldberg,
Flores-Lopez,Jesus,8,Jesus,Flores-Perez,,,(720)427-8450,(720)394-7161,1212 S Alcott St,"Denver, CO 80219",Father,Glasspoole,
Flores-Lopez,Jesus,8,Amanda,Lopez,,,(720)725-4600,,1212 S Alcott St,"Denver, CO 80219",Mother,Glasspoole,
Florez,Danae,6,Tim,Florez,tflorez21@aol.com,,(720)537-5757,,1765 S Decatur St,"Denver, CO 80219",Father,Hatcher,
Florez,Danae,6,Dani,Torres,dtorres07158@gmail.com,(303)832-5262x,(720)276-8119,,1765 S Decatur St,"Denver, CO 80219",Mother,Hatcher,
Fuentes-Gutierrez,Johanna,8,Jazmin,Gutierrez,jazming29@gmail.com,,(303)887-1488,(720)229-2653,3045 S Zuni St,"Denver, CO 80236-2840",Mother,Elledge,
Galaviz,Izik,7,Kristina,Elledge,kristinamgalaviz@gmail.com,,(714)280-5507,,1301 S Wolff St,"Denver, CO 80219",Mother,Dubay,Mohr
Galicia,Sergio,6,Martha,Ahuanta-Ahuixtle,marthaahuanta@hotmail.com,,(720)292-9956,,563 S Stuart St,"Denver, CO 80219-2435",Mother,Thompson,
Gallegos,Veronique,8,Sara,Gallegos,sjg2739@gmail.com,,(720)227-8422,,1616 S Zenobia St,"Denver, CO 80219-4351",Grandmother,Elledge,
Gallegos,Veronique,8,Michael,Torres,,,(720)401-5671,,1616 S Zenobia St,"Denver, CO 80219-4351",Grandfather,Elledge,
Garay-Gonzalez,Jaylin,8,Alejandro,Garay,,(720)249-9733,(720)620-7355,(303)649-9140,2534 S Vrain St,"Denver, CO 80219",Father,Infanzon,McClellan
Garay-Gonzalez,Jaylin,8,Elia,Gonzalez,Garay.faviola@yahoo.com,(720)620-7355,(720)249-9733,,2534 S Vrain St,"Denver, CO 80219",Mother,Infanzon,McClellan
Garay-Gonzalez,Nayensi,7,Alejandro,Garay,,(720)249-9733,(720)620-7355,(303)649-9140,2534 S Vrain St,"Denver, CO 80219",Father,Abbott,
Garay-Gonzalez,Nayensi,7,Elia,Gonzalez,Garay.faviola@yahoo.com,(720)620-7355,(720)249-9733,,2534 S Vrain St,"Denver, CO 80219",Mother,Abbott,
Garcia,Angel,6,Juan,Garcia,,,(720)775-7213,(303)364-7945,2630 S Irving St,"Denver, CO 80219",Father,Thompson,
Garcia,Angel,6,Sara,Garcia,sarahavarro91@yahoo.com,(203)364-7945,(720)202-0599,(303)432-2258,2630 S Irving St,"Denver, CO 80219",Mother,Thompson,
Garcia,Angelica,8,Olivia,Garcia,olivia.garcia25@gmail.com,,(720)416-0268,,3021 S Bryant St,"Denver, CO 80236",Mother,Strickland,
Garcia,Caitlynn,8,Maricela,Duarte,celad28@gmail.com,,(720)216-3484,,3202 S King Way,"Denver, CO 80236-2381",Mother,Coszalter,
Garcia,Caitlynn,8,Richard,Garcia,rmgjr1982@gmail.com,(303)807-9612x,(303)807-9612,,3202 S King Way,"Denver, CO 80236-2381",Father,Coszalter,
Garcia,Connie,8,Rose,Maes,,(303)936-5959,(720)934-0081,,2732 W Archer Pl,"Denver, CO 80219",Grandmother,Strickland,
Garcia,Ethan,6,Maricela,Duarte,celad28@gmail.com,,(720)216-3484,,3202 S King Way,"Denver, CO 80236-2381",Mother,Burroughs,
Garcia,Ethan,6,Richard,Garcia,rmgjr1982@gmail.com,(303)807-9612x,(303)807-9612,,3202 S King Way,"Denver, CO 80236-2381",Father,Burroughs,
Garcia,Mariah,6,Cristal,Garcia,cristal1garcia84@gmail.com,,(720)548-7800,,2761 S Newland St,"Denver, CO 80227",Mother,Knox,
Garcia,Mariah,6,Rodney,Garcia,Rodney_garcia85@yahoo.com,,(720)244-9423,,2761 S Newland St,"Denver, CO 80227",Father,Knox,
Garcia,Sonny,7,Chris,Garcia,,,(720)298-1058,,3025 S Teller St,"Denver, CO 80227",Father,Solomon,
Garcia-Escandon,Angel,8,Virginia,Escandon-Leyva,garcia_mayra10@yahoo.com,(303)459-2528,(303)803-4802,,1580 S Perry St,"Denver, CO 80219-4443",Mother,Pochette,
Garcia-Escandon,Angel,8,Manuel,Garcia-Avila,,(303)459-2528,(720)746-8528,,1580 S Perry St,"Denver, CO 80219-4443",Father,Pochette,
Garcia-Guzman,Selena,8,Nelson,Garcia,,,(720)629-2995,,2135 S Depew St #18,"Denver, CO 80227-3662",Father,Strickland,
Garcia-Guzman,Selena,8,Regina,Morales,,,(720)385-7310,,2135 S Depew St #18,"Denver, CO 80227-3662",Mother,Strickland,
Garcia-Ruiz,Alexa,7,Miguel,Garcia,,,(720)300-2005,,63 S Quitman St,"Denver, CO 80219",Father,Dunn,
Garcia-Ruiz,Alexa,7,Maria,Ruiz,,,(720)300-2005,,63 S Quitman St,"Denver, CO 80219",Mother,Dunn,
Glassner,Jordan,6,Celia,Glassner,celiaglassner@hotmail.com,,(303)619-7079,(303)205-6839,2884 S Winona Ct,"Denver, CO 80236",Mother,Burroughs,
Glassner,Jordan,6,William,Glassner,,,(303)619-1096,,2884 S Winona Ct,"Denver, CO 80236",Father,Burroughs,
Godoy-Contreras,Dennis,6,Glenda,Contreras,glenda222cerezo@yahoo.com,(720)629-9038,(720)252-3319,,2015 W Evans Ave,"Denver, CO 80223",Mother,Thompson,
Godoy-Contreras,Dennis,6,Jose,Godoy-Revolorio,,,(720)629-9038,,2015 W Evans Ave,"Denver, CO 80223",Father,Thompson,
Gomez,Davian,8,Devon,Merriken,jjsincere13@aol.com,,(720)276-3122,,2089 S Zenobia St,"Denver, CO 80219",Mother,Parks,
Gomez,Jose,6,Isela,Daza-Mendez,samanthadanteangel@yahoo.com,(720)882-6508,(720)422-6076,,5350 W Warren Ave #20,"Denver, CO 80227-3929",Mother,Burroughs,
Gomez,Jose,6,Alejandro,Salazar,Samanthadanteangel@yahoo.com,,(720)882-6508,,5350 W Warren Ave #20,"Denver, CO 80227-3929",Father,Burroughs,
Gomez,Vincent,8,Maria,Gomez,mariadgomez29@gmail.com,(303)937-0553,(303)726-3946,,685 S Newton St,"Denver, CO 80219",Mother,Parks,
Gomez-Hernandez,Sony,7,Soni,Gomez-Hernandez,,,(720)775-3951,,2950 S Decatur St,"Denver, CO 80236",Father,Gish,
Gomez-Hernandez,Sony,7,Elena,Hernandez-Calva,elenah78@yahoo.com,,(720)439-0464,,2950 S Decatur St,"Denver, CO 80236",Mother,Gish,
Gonzales,Justyce,6,Lynnette,Marquez,,,(720)234-9469,,3101 S Federal Blvd #F8,"Denver, CO 80236-2775",Mother,Hatcher,
Gonzalez,Ruby,7,Cristal,Gonzalez,ruby0578@yahoo.com,,(720)474-5156,,911 S Sheridan Blvd,"Lakewood, CO 80226-4837",Mother,Wold,
Gonzalez,Santiago,6,Moises,Gonzalez,Moises_alicia@centurylink.net,,(720)226-1846,,2238 S Patton Ct,"Denver, CO 80219-5210",Father,Burroughs,
Gonzalez,Santiago,6,Alicia,Lopez,Alicia_acatic@msn.com,(303)935-5111x,(303)909-6679,(303)707-6800,2238 S Patton Ct,"Denver, CO 80219-5210",Mother,Burroughs,
Gonzalez,Valerie,6,Melanie,Mandril,mgvarn@icloud.com,,(303)921-0421,,3424 W Floyd Ave,"Denver, CO 80236-2304",Mother,Knox,
Gonzalez-Bustos,Joshi,7,Georgina,Bustos-Camacho,,(720)361-5292,(720)361-5292,,2912 S Federal Blvd #101,"Denver, CO 80236",Mother,Lusa,
Gonzalez-Bustos,Joshi,7,Jose,Gonzalez-Moncada,georgina.bustos626@gmail.com,(720)229-8349,(720)361-5292,,2912 S Federal Blvd #101,"Denver, CO 80236",Father,Lusa,
Gonzalez-Juarez,Jazmine,8,Juan,Gonzalez,,,(303)847-8334,,2366 S Tennyson St,"Denver, CO 80219",Father,Strickland,
Gonzalez-Juarez,Jazmine,8,Maria,Juarez,,,(720)938-9622,,2366 S Tennyson St,"Denver, CO 80219",Mother,Strickland,
Gonzalez-Terrones,Carlos,7,Carlos,Gonzales,,,(303)669-1078,,2325 S Zuni St,"Denver, CO 80219-5936",Father,Solomon,
Gonzalez-Terrones,Carlos,7,Estefany,Terrones,wcaestefany.terrones@gmail.com,,(720)837-9108,,2325 S Zuni St,"Denver, CO 80219-5936",Mother,Solomon,
Gonzalez-Terrones,Jazmin,8,Edmundo,Gonzalez-Arambula,,,(720)877-8271,,134 Hazel Ct,"Denver, CO 80219",Father,Infanzon,
Gonzalez-Terrones,Jazmin,8,Sandra,Terrones,,,(720)266-8933,,134 Hazel Ct,"Denver, CO 80219",Mother,Infanzon,
Goudeau,Zy'Jzhanegu,7,Quasheac,Bryant,Ms_zyyon@yahoo.com,,(602)552-5542,,2926 W 4th Ave,"Denver, CO 80219",Mother,Wold,
Grajeda-Gonzalez,David,8,Alonso,Grajeda,,,(720)436-3202,,3175 W Floyd Ave #206,"Englewood, CO 80110-7236",Father,Glasspoole,
Grajeda-Gonzalez,David,8,Luz,Grajeda,lucygonzalez5000@gmail.com,,(720)692-1431,,3175 W Floyd Ave #206,"Englewood, CO 80110-7236",Mother,Glasspoole,
Grimaldo-Chavira,Ashley,6,Manuela,Chavira,chavira671@gmail.com,,(720)525-1236,,5300 W Warren Ave #12,"Denver, CO 80227-3932",Mother,Dendle,Zayas
Grimaldo-Chavira,Ashley,6,Jose,Grimaldo-Silva,Gerardogsilva00@gmail.com,,(720)525-1103,,5300 W Warren Ave #12,"Denver, CO 80227-3932",Father,Dendle,Zayas
Guerra Davalillo,Lucas,6,Johaxy,Davalillo,,,(720)419-4345,,3400 S Lowell Blvd #3-305,"Denver, CO 80236-2413",Mother,Castanzo,
Guerrero-Badillo,Alicia,6,Juana,Badillo-Jimenez,daisy091317@gmail.com,(720)546-0684,(720)642-2384,(720)980-7803,3030 S Federal Blvd #307,"Denver, CO 80236-2743",Mother,Izaguirre,
Guerrero-Badillo,Alicia,6,Gabriel,Guerrero-Garcia,,(720)461-9164,(720)546-0684,,3030 S Federal Blvd #307,"Denver, CO 80236-2743",Father,Izaguirre,
Gutierrez,Anthony,6,Jessica,Porras,jessicaPorras85@hotmail.com,,(720)421-1141,,1430 S King Ct,"Denver, CO 80219",Mother,Thompson,
Gutierrez,Carlos,6,Carlos,Gutierrez,,(303)935-7710,(720)373-6577,,4568 W Tennessee Ave,"Denver, CO 80219",Father,Budde,
Gutierrez,Carlos,6,Veronica,Rodriguez-Pinon,,(303)935-7710,(720)373-6577,,4568 W Tennessee Ave,"Denver, CO 80219",Mother,Budde,
Gutierrez,Emylio,7,Margaret,Gutierrez,,,(720)628-7687,,3101 S Federal Blvd #B8,"Denver, CO 80236",Mother,Gish,Mohr
Gutierrez,Giovanni,8,Jessica,Porras,jessicaPorras85@hotmail.com,,(720)421-1141,,1430 S King Ct,"Denver, CO 80219",Mother,Pochette,
Gutierrez,Jair,8,Maria,Gutierrez,guillermo@mcclure-concrete.com,(303)435-2014,(720)620-0502,,1819 S Newton St,"Denver, CO 80219",Mother,Glasspoole,
Gutierrez,Jair,8,Guillermo,Gutierrez-Diaz,jesuzie1075@yahoo.com,,(303)435-2014,(303)364-7399,1819 S Newton St,"Denver, CO 80219",Father,Glasspoole,
Gutierrez-Diaz,Luis,8,Fabiola,Diaz-Sanchez,,,(720)517-9997,,3727 W Cedar Ave,"Denver, CO 80219-1921",Mother,Parks,
Gutierrez-Diaz,Luis,8,Alberto,Gutierrez,,,(720)365-7495,,3727 W Cedar Ave,"Denver, CO 80219-1921",Father,Parks,
Gutierrez-Flores,Hector,8,Edith,Flores,,,(303)269-9488,,1868 S Perry Way,"Denver, CO 80219",Mother,Mulkey,
Gutierrez-Flores,Hector,8,Hector,Gutierrez,,,,(303)875-8340,1868 S Perry Way,"Denver, CO 80219",Father,Mulkey,
Gutierrez-Granados,Kellen,8,Blanca,Granados,blancagranados81@yahoo.com,,(720)280-5166,(720)238-9721,2510 S Knox Ct,"Denver, CO 80219",Mother,Infanzon,
Guzman-Tinoco,Kelly,6,Gerardo,Guzman,,,(720)404-6213,,110 S Dale Ct,"Denver, CO 80219",Father,Hatcher,
Guzman-Tinoco,Kelly,6,Angelica,Tinoco,angietinoco0225@gmail.com,,(303)419-8888,,110 S Dale Ct,"Denver, CO 80219",Mother,Hatcher,
Guzman-Tinoco,Paulina,8,Gerardo,Guzman,,,(720)404-6213,,110 S Dale Ct,"Denver, CO 80219",Father,Nelsen,
Guzman-Tinoco,Paulina,8,Angelica,Tinoco,angietinoco0225@gmail.com,,(303)419-8888,,110 S Dale Ct,"Denver, CO 80219",Mother,Nelsen,
Hernandez,Rachel,7,Leslee,Hernandez,leslee42@aol.com,(303)761-7597,(303)564-8403,(303)368-3331,3501 W Girard Dr,"Denver, CO 80236-2461",Mother,King,
Hernandez,Rachel,7,Raymond,Hernandez,,(303)761-7597,(303)564-7839,(303)980-4750,3501 W Girard Dr,"Denver, CO 80236-2461",Father,King,
Hernandez,Santino,7,Maria,Munoz,starrsnstrraps@gmail.com,,(720)692-0539,,178 S Julian St,"Denver, CO 80219",Mother,Moreno,
Hernandez-Arellanes,Marcos,7,Narcisa,Garcia-Arellanes,,(720)365-6968,(720)365-6968,(303)683-7655,3155 W Floyd Ave #305,"Englewood, CO 80110",Mother,Lusa,
Hernandez-Gonzalez,Diego,8,Maria,Hernandez,maryh2132@gmail.com,,(720)879-1906,,1824 S Upham St,"Lakewood, CO 80232",Mother,Passenant,
Hernandez-Gonzalez,Diego,8,Miguel,Hernandez,,,(720)226-5815,,1824 S Upham St,"Lakewood, CO 80232",Father,Passenant,
Hernandez-Toribio,Pedro,6,Pedro,Hernandez-Campos,,,(720)404-8719,,540 Quitman St,"Denver, CO 80204-4722",Father,Thompson,
Hernandez-Toribio,Pedro,6,Monica,Toribio,idaly_Tor86@hotmail.com,(720)404-8719,(720)885-0643,,540 Quitman St,"Denver, CO 80204-4722",Mother,Thompson,
Hernandez-Zambrano,Donna,7,Zulema,Zambrano-Candiotti,Zulemazambrano@hotmail.com,(720)298-3003,,(720)885-5341,537 Quitman St,"Denver, CO 80204",Mother,King,
Herrera,Marcos,7,Mary,Coronel,marycoronel06@gmail.com,,(720)300-2663,,1400 S Xavier St,"Denver, CO 80219-3630",Mother,Dubay,
Herrera-Delgado,Brianna,7,Veronica,Delgado-Granados,verodelgado914@gmail.com,(720)496-8315,(720)933-4665,(720)757-4161,3237 W Nevada Pl #9,"Denver, CO 80219",Mother,Dunn,
Herrera-Delgado,Brianna,7,Carlos,Herrera-Zuniga,,,(720)917-8933,,3237 W Nevada Pl #9,"Denver, CO 80219",Father,Dunn,
Herrera-Martinez,Karen,8,Elvia,Martinez,,(720)987-6796,,,710 S Vallejo St,"Denver, CO 80223",Mother,Infanzon,
Herrera-Salomon,Nathan,7,Pedro,Herrera-Flores,teresa.salomon36@gmail.com,,(720)579-3280,,978 S Utica St #1,"Denver, CO 80219",Father,Gish,
Herrera-Salomon,Nathan,7,Teresa,Salomon-Rodriguez,salomonteresa66@yahoo.com,,(720)207-4565,,978 S Utica St #1,"Denver, CO 80219",Mother,Gish,
Hicks,Lauren,7,Renee,Acosta,reneeacostah120@gmail.com,,(720)572-0617,,753 Raleigh St #101,"Denver, CO 80219-3149",Mother,Dunn,
Hicks,Lauren,7,Renee,Hicks,hicks_renee@ymail.com,(720)629-3824,,,753 Raleigh St #101,"Denver, CO 80219-3149",Mother,Dunn,
Hinojos,Nathaniel,7,David,Hinojos,dbhdilligaf@gmail.com,,(720)366-4415,,1385 Meade St,"Denver, CO 80204",Father,Moreno,
Hinojos,Nathaniel,7,Lorraine,Hinojos,Ldang22221@gmail.con,,(720)492-4931,,1385 Meade St,"Denver, CO 80204",Mother,Moreno,
Hoang,Benny,8,Hoa,Hoang,hoanhuhoang@gmail.com,(720)443-9479,(720)443-9471,,2787 S Zuni St,"Denver, CO 80236",Father,Passenant,
Hoang,Benny,8,Lien,Le,,(720)443-9471,(720)443-9479,,2787 S Zuni St,"Denver, CO 80236",Mother,Passenant,
Hoang,Kathleen,7,Hang,Hoang,,,(720)985-0174,,1805 S Lowell Blvd,"Denver, CO 80219-4532",Mother,King,
Hoang,Michelle,8,Hang,Hoang,,,(720)985-0174,,1805 S Lowell Blvd,"Denver, CO 80219-4532",Mother,Strickland,
Hoang,Tessa,6,Hang,Hoang,,,(720)985-0174,,1805 S Lowell Blvd,"Denver, CO 80219-4532",Mother,Santare,
Huynh,Melvin,7,Giang,Huynh,,,(303)960-1284,,1410 W Alaska Pl,"Denver, CO 80223-2005",Mother,Solomon,
Huynh,Melvin,7,Giang,Huynh,,,(303)960-1284,,2485 S Tejon St,"Englewood, CO 80110-1069",Mother,Solomon,
Huynh,Melvin,7,Minh,Nguyen,,(720)934-4155,(303)960-1284,,1410 W Alaska Pl,"Denver, CO 80223-2005",Father,Solomon,
Huynh,Melvin,7,Minh,Nguyen,,(720)934-4155,(303)960-1284,,2485 S Tejon St,"Englewood, CO 80110-1069",Father,Solomon,
Ibanez-Araujo,Elisandro,6,Maria,Araujo,maaraujo8@gmail.com,,(303)419-1380,,5775 W Dartmouth Ave #5-210,"Denver, CO 80227",Mother,Thompson,
Ibanez-Araujo,Elisandro,6,Adrian,Ibanez,,,(720)629-1024,,5775 W Dartmouth Ave #5-210,"Denver, CO 80227",Father,Thompson,
Ibarra,Zuseth,7,Alejandra,Caldera,,,(720)394-9420,,3030 S Federal Blvd #108,"Denver, CO 80236",Mother,Wold,
Ibarra,Zuseth,7,Rocio,Hernandez,,,,,3030 S Federal Blvd #108,"Denver, CO 80236",Grandmother,Wold,
Infante,Amy,8,Yazmin,Barrera,raybarrera123@gmail.com,(720)936-4205,(720)224-4907,,481 S Perry St,"Denver, CO 80219-2527",Mother,Elledge,
Jaime-Gonzalez,Laura,8,Maria,Gonzalez,,,(720)621-6896,,5400 W Warren Ave #13,"Denver, CO 80227-3924",Mother,Strickland,
Jimenez-Hernandez,David,8,Julia,Hernandez-Gomez,juliahernandez3184@gmail.com,,(720)352-4824,,3184 W Iowa Ave,"Denver, CO 80219",Mother,Mulkey,
Jimenez-Hernandez,David,8,Jose,Jimenez-Castaneda,,,(720)903-5084,,3184 W Iowa Ave,"Denver, CO 80219",Father,Mulkey,
Johnson,Mekhi,8,Veronica,Johnson,johnson.veronica67@yahoo.com,,(228)328-5539,,3386 W Ohio Ave,"Denver, CO 80219",Mother,Glasspoole,
Jones,Aliyah,6,Jason,Jones,tmcoyne_6@hotmail.com,(720)456-7758,(303)359-7958,,3740 W Floyd Ave,"Denver, CO 80236-2383",Father,Izaguirre,
Jones,Aliyah,6,Tammi,Jones,tmcoyne_6@hotmail.com,(720)456-7758,(303)523-3913,,3740 W Floyd Ave,"Denver, CO 80236-2383",Mother,Izaguirre,
Juarez,Evaleen,7,Laura,Gallardo,lgallardoaveda@gmail.com,,(720)546-5560,,2425 W Dartmouth Ave,"Denver, CO 80236-2832",Mother,Abbott,
Juarez-Gonzalez,Melissa,7,Maricela,Gonzalez-Ventura,,(720)481-6173,(720)451-1552,(303)972-1857,2860 W Amherst Ave,"Denver, CO 80236",Mother,Wold,
Juarez-Landa,Jessie,8,Jorge,Juarez-Meza,,,(720)429-7050,,1017 S Osceola St,"Denver, CO 80219",Father,Mulkey,
Juarez-Landa,Jessie,8,Claudia,Landa,clauudita27@hotmail.com,,(720)639-1447,,1017 S Osceola St,"Denver, CO 80219",Mother,Mulkey,
Juarez-Landa,Valeria,6,Jorge,Juarez-Meza,,,(720)429-7050,,1017 S Osceola St,"Denver, CO 80219",Father,Santare,
Juarez-Landa,Valeria,6,Claudia,Landa,clauudita27@hotmail.com,,(720)639-1447,,1017 S Osceola St,"Denver, CO 80219",Mother,Santare,
Juarez-Mares,Monserrat,6,Enrique,Juarez,,,(303)505-3802,,3075 W Floyd Ave #101,"Englewood, CO 80110-7200",Father,Santare,
Juarez-Mares,Monserrat,6,Alicia,Mares,,,(720)849-1540,,3075 W Floyd Ave #101,"Englewood, CO 80110-7200",Mother,Santare,
Juarez-Ortiz,Kelly,7,Lorena,Ortiz-Ventura,,,(720)561-0274,,1471 S Eliot St,"Denver, CO 80219-4718",Mother,Wold,
Juarez-Santana,Samantha,7,Hector,Moreno,morenohector82@yahoo.com,,(303)513-6938,,5154 W Kentucky Ave,"Denver, CO 80219",Father,Haserodt,
Juarez-Santana,Samantha,7,Alma,Santana,Morenohector82@yahoo.com,,(720)338-5761,,5154 W Kentucky Ave,"Denver, CO 80219",Mother,Haserodt,
Keilwitz,Orion,6,Glen,Davis,a.keilwitz@yahoo.com,,(323)963-9046,(303)706-0035x,3850 W Floyd Ave,"Denver, CO 80236",Step-Father,Thompson,
Keilwitz,Orion,6,Autumn,Davis-Keilwitz,a.keilwitz@yahoo.com,(303)963-9046x,(720)635-8395,(303)390-3167x,3850 W Floyd Ave,"Denver, CO 80236",Mother,Thompson,
Le,Phuc,8,Dung,Nguyen,DUNGQI2910@YAHOO.COM,,(303)887-2666,,859 S Vrain St,"Denver, CO 80219",Mother,Mulkey,
Le,Phuc,8,Hai,Pham,,,(720)429-7376,,859 S Vrain St,"Denver, CO 80219",Step-Father,Mulkey,
Leiva-Aleman,Anthony,6,Rosa,Aleman,rosealeman1986@gmail.com,,(720)289-9713,,3220 S Irving St #102,"Englewood, CO 80110-7238",Mother,Thompson,
Leiva-Franco,Matthew,8,Susana,Franco,francosusana21@gmail.com,,(720)838-5415,,2635 S Newton St,"Denver, CO 80219",Mother,Pochette,
Leiva-Franco,Nilson,6,Susana,Franco,francosusana21@gmail.com,,(720)838-5415,,2635 S Newton St,"Denver, CO 80219",Mother,Thompson,
Leon-Ramirez,Roberto,7,Isabel,Ramirez,,,(720)628-7785,(303)573-1617,3452 W Center Ave #A,"Denver, CO 80219-6605",Mother,Solomon,Mohr
Loftin,Chauncey,6,Chaka,Loftin,Chakaloftin@gmail.com,(720)443-2591,(402)812-5689,,2727 S Green Ct,"Denver, CO 80236",Mother,Burroughs,Zayas
Lopez,Arianna,6,Valerie,Rivera,,,(720)709-9705,,21 Hazel Ct,"Denver, CO 80219-1526",Mother,Izaguirre,
Lopez,Diego,8,Angelica,Lopez,lopezangelica36@gmail.com,(303)935-1717x,(303)507-9562,,1615 S Raleigh St,"Denver, CO 80219",Mother,Glasspoole,
Lopez,Diego,8,Jesus,Lopez,jesselopez91@gmail.com,(303)935-1717,(303)525-0344,(303)707-5089,1615 S Raleigh St,"Denver, CO 80219",Father,Glasspoole,
Lopez,Louis,6,Luis,Lopez,louislopez64@msn.com,(720)628-1754,(720)229-9047,,2901 S Bryant St,"Denver, CO 80236",Father,Burroughs,
Lopez,Louis,6,Maria,Lopez,Luislopez911@hotmail.com,(720)229-9047,(720)628-1754,,2901 S Bryant St,"Denver, CO 80236",Mother,Burroughs,
Lopez-Barraza,Irving,6,Erica,Barraza,ebarraza06@gmail.com,,(720)935-1357,,3981 W Kenyon Ave,"Denver, CO 80236",Mother,Burroughs,
Lopez-Barraza,Irving,6,Jesus,Lopez-Contreras,elecko@hotmail.com,,(720)227-1511,,3981 W Kenyon Ave,"Denver, CO 80236",Father,Burroughs,
Lopez-Navarro,Angel,7,Concepcion,Navarro,,,(720)436-8417,,1833 S Hazel Ct,"Denver, CO 80219",Mother,Gish,
Lopez-Sanchez,Alexis,8,Olga,Lopez-Sanchez,llety75@hotmail.com,(720)429-4959,,(720)789-9951,2696 S Federal Blvd #306,"Denver, CO 80219",Mother,Mulkey,
Lopez-Sanchez,Alexis,8,Aurelio,Perez,,,(702)789-9951,,2696 S Federal Blvd #306,"Denver, CO 80219",Step-Father,Mulkey,
Lucero,Damien,8,Thomas,Lucero,,,(720)238-6286,,1990 S Hooker Cir,"Denver, CO 80219-5413",Father,Glasspoole,McClellan
Lucero,Damien,8,Margaret,Martinez,mymargaret1981@yahoo.com,,(303)868-1899,(303)922-1123,1990 S Hooker Cir,"Denver, CO 80219-5413",Mother,Glasspoole,McClellan
Luna-Garcia,Joseph,6,Johanna,Luna-Garcia,,,(720)665-8125,,3162 W Center Ave,"Denver, CO 80219",Mother,Burroughs,
Lynch,Alexis,7,Amisty,Gore,amistyg@yahoo.com,,(303)946-7507,(303)730-5804,4497 S Lowell Blvd,"Denver, CO 80236-3602",Mother,Haserodt,
Lynch,Shaun,8,Amisty,Gore,amistyg@yahoo.com,,(303)946-7507,(303)730-5804,4497 S Lowell Blvd,"Denver, CO 80236-3602",Mother,Pochette,
Mabasa,Caden,6,Joanne,Mabasa,jjmabasa15@yahoo.com,,(720)473-3697,(303)935-6763x105,2964 S Teller St,"Denver, CO 80227",Mother,Budde,
Mabasa,Caden,6,Rafael,Mabasa,jjmabasa15@yahoo.com,,(720)470-6416,(303)935-6763,2964 S Teller St,"Denver, CO 80227",Father,Budde,
Macias,Edwin,7,Cesar,Macias,maciascesar090@gmail.com,(303)883-1486,(720)402-1555,,195 S Decatur St,"Denver, CO 80219",Father,Moreno,
Macias,Edwin,7,Claudia,Macias,claudia31macias@gmail.com,(720)385-5727,(303)815-6436,(303)733-7311,195 S Decatur St,"Denver, CO 80219",Mother,Moreno,
Maciel-Borrego,Karina,6,Claudia,Maciel,,,(720)642-2826,,2138 S Harlan St,"Denver, CO 80227",Mother,Dendle,
Maciel-Borrego,Karina,6,Javier,Maciel-Santiago,,,(720)451-0609,,2138 S Harlan St,"Denver, CO 80227",Father,Dendle,
Maciel-Jimenez,Alma,8,Ausencio,Maciel,,(303)975-4352,(303)591-0814,,2365 S Stuart St,"Denver, CO 80219",Father,Infanzon,
Maciel-Jimenez,Alma,8,Sanjuanita,Maciel,sanjuanita.maciel@yahoo.com,,(720)422-6495,(303)592-1446,2365 S Stuart St,"Denver, CO 80219",Mother,Infanzon,
Maciel-Ramos,Daniela,6,Samuel,Maciel-Garcia,macielgs1225@gmail.com,,(720)620-4048,,3209 S Lowell Blvd,"Denver, CO 80236",Father,Izaguirre,
Maciel-Ramos,Daniela,6,Alejandra,Ramos,aleramos0516@gmail.com,,(720)629-3443,,3209 S Lowell Blvd,"Denver, CO 80236",Mother,Izaguirre,
Maciel-Ramos,Francisco,8,Samuel,Maciel-Garcia,macielgs1225@gmail.com,,(720)620-4048,,3209 S Lowell Blvd,"Denver, CO 80236",Father,Glasspoole,
Maciel-Ramos,Francisco,8,Alejandra,Ramos,aleramos0516@gmail.com,,(720)629-3443,,3209 S Lowell Blvd,"Denver, CO 80236",Mother,Glasspoole,
Maciel-Vargas,Diego,7,Aureliano,Maciel,,,(720)579-1967,,3602  S  King St,"Denver, CO 80236-6110",Father,Solomon,
Maciel-Vargas,Diego,7,Alejandra,Vargas,,(720)579-1967,(303)934-4630,,3602  S  King St,"Denver, CO 80236-6110",Mother,Solomon,
Magallanes,Sophia,6,Marina,Magallanes,,,(720)840-0404,,3400 S Lowell Blvd #12-201,"Denver, CO 80236-2432",Mother,Knox,Zayas
Mai,Khanh,7,Dang,Mai,dmaix2011@yahoo.com,,(303)842-4918,(303)937-9120,3951 W Kenyon Ave,"Denver, CO 80236-3009",Father,Dubay,
Maldonado,Irma,7,Marlene,Mendoza-Prado,menenna8@hotmail.com,,(956)961-2704,,1560 S Sheridan Blvd,"Denver, CO 80232",Mother,Wold,
Mancia,Anthony,7,Gelman,Mancia,gelmanrubia@icloud.com,(720)403-0611,,,1248 S Canosa Ct,"Denver, CO 80219",Mother,Solomon,
Manquera-Marquez,Haziel,7,Haziel,Manquera,,,(720)495-8027,,2040 S King St,"Denver, CO 80219",Father,Lusa,
Manquera-Marquez,Haziel,7,Liliana,Marquez,lilianamarquez404@gmail.com,,(720)404-8045,,2040 S King St,"Denver, CO 80219",Mother,Lusa,
Marquez,Cesar,6,Jeanette,Lara,,,(720)220-0692,,3101 S Federal Blvd #D6,"Denver, CO 80236-2774",Mother,Burroughs,
Marquez,Juan,6,Juan,Marquez,,,(720)227-1129,,3080 W Iliff Ave #312,"Denver, CO 80219",Father,Burroughs,
Marquez,Juan,6,Veronica,Ramirez,marquezveronica28@gmail.com,,(720)329-7086,,3080 W Iliff Ave #312,"Denver, CO 80219",Mother,Burroughs,
Martinez,Jason,6,Elizabeth,Arzate,elizabeth.arzate@yahoo.com,,(720)930-0855,,1157 S Canosa Ct,"Denver, CO 80219-4223",Mother,Burroughs,
Martinez,Jason,6,Marco,Martinez,,,(303)386-2713,,1157 S Canosa Ct,"Denver, CO 80219-4223",Father,Burroughs,
Martinez,Mariana,6,Tanya,Sutten,,,(720)486-1573,,1674 S Federal Blvd #B,"Denver, CO 80219",Mother,Hatcher,
Martinez,Sonia,8,Alma,Gonzalez,alma.gonzalez135@gmail.com,,(720)276-1742,(720)423-2737,670 Winona Ct #31,"Denver, CO 80204-5239",Mother,Coszalter,
Martinez,Steven,6,Heather,Ruiz,kevinbrownis@gmail.com,,(720)219-2861,,3075 W Floyd Ave #308,"Englewood, CO 80110-7229",Mother,Goldberg,Zayas
Martinez-Delgado,Jasmin,6,Ivonne,Delgado-Flores,,(720)297-9229,(720)436-3440,,1403 S Yates St,"Denver, CO 80219-3637",Mother,Santare,
Martinez-Delgado,Jasmin,6,Luis,Martinez-Caballero,,,(720)297-9229,,1403 S Yates St,"Denver, CO 80219-3637",Father,Santare,
Martinez-Izaguirre,Jasmin,8,Maria,Izaguirre,mariaizaguirre788@gmail.com,,(720)403-5637,,447 S Osceola St,"Denver, CO 80219",Mother,Strickland,
Martinez-Izaguirre,Jasmin,8,Jaime,Martinez,,,,,447 S Osceola St,"Denver, CO 80219",Father,Strickland,
Martinez-Izaguirre,Joanna,8,Maria,Izaguirre,mariaizaguirre788@gmail.com,,(720)403-5637,,447 S Osceola St,"Denver, CO 80219",Mother,Nelsen,
Martinez-Izaguirre,Joanna,8,Jaime,Martinez,,,,,447 S Osceola St,"Denver, CO 80219",Father,Nelsen,
Salazar,Alexis,8,Rodolfo,Lopez,vmiramontes1225@gmail.com,(720)363-8788,(720)334-4540,,3141 S Santa Fe Dr #3,"Englewood, CO 80110-2145",Father,Glasspoole,
Sanchez,Richshea,7,Miriam,Sanchez,sheazamirra1@gmail.com,,(720)440-1506,,1897 S Alcott St,"Denver, CO 80219-4907",Mother,Dunn,
Maximiliano-Hernandez,Marco,8,Cristina,Hernandez,hernandez.christina1@yahoo.com,,(303)525-3490,,3653 S Sheridan Blvd #Q6,"Lakewood, CO 80235-3168",Mother,Pochette,
Maximiliano-Hernandez,Marco,8,Maurillio,Maximiliano,,,(303)435-9843,,3653 S Sheridan Blvd #Q6,"Lakewood, CO 80235-3168",Father,Pochette,
Mazariegos-Lorenzo,Irene,6,Maribel,Lorenzo,,,(720)291-8522,,3150 W Floyd Ave #2,"Englewood, CO 80110-7208",Mother,Castanzo,
McGookey,Andrew,7,Miah,Duran,miah.duran@yahoo.com,,(720)253-8470,,3566 W Amherst Ave,"Denver, CO 80236-2506",Mother,Moreno,
McLaughlin,Amanda,8,Michael,McLaughlin,,,(303)276-1441,,1545 S Wolcott Ct,"Denver, CO 80219",Undefined,Nelsen,
McLaughlin,Amanda,8,Tanya,McLaughlin,TanyaG1405@gmail.com,,(720)249-7970,,1545 S Wolcott Ct,"Denver, CO 80219",Mother,Nelsen,
Medina,Jordan,7,Michael,Medina,,,(720)749-8631,(303)922-5800,1222 Wadsworth Blvd #12,"Lakewood, CO 80214",Father,Gish,
Medina,Jordan,7,Marlene,Mestaz,marlenemestaz@gmail.com,,,,1222 Wadsworth Blvd #12,"Lakewood, CO 80214",Mother,Gish,
Medina,Leo,6,Jessica,Medina,j.medinalrm07@gmail.com,(303)274-7406,(720)569-1026,(303)238-0451,7309 Hampden Ave #6103,"Lakewood, CO 80227-5115",Mother,Goldberg,
Mejia,Alejandra,6,Antonio,Mejia,,,,,2753 S King St,"Denver, CO 80236-2513",Father,Santare,
Mejia,Alejandra,6,Ana,Pena,,,(303)419-5054,,2753 S King St,"Denver, CO 80236-2513",Mother,Santare,
Mendez,Santiago,7,Rena,Valdez,,(720)229-8645,,,2907 W College Ave,"Denver, CO 80219",Mother,Dubay,
Mendez-Hernandez,Eduardo,6,Martha,Hernandez,,,(720)292-9287,,5500 W Warren Ave #6,"Denver, CO 80227",Mother,Goldberg,
Mendez-Hernandez,Eduardo,6,Rigoberto,Mendez,,,(303)960-3907,,5500 W Warren Ave #6,"Denver, CO 80227",Father,Goldberg,
Mendez-Lopez,Jaelyn,7,Jenny,Lopez,Jenny4jm@yahoo.com,(720)323-7698,,,2610 S Irving St,"Denver, CO 80219",Mother,Wold,
Mendoza-Guardado,Jocelyne,6,Erika,Guardado Martinez,,,(720)940-8836,,5855 W Hampden Ave #3206,"Denver, CO 80227",Mother,Hatcher,
Mendoza-Guardado,Jocelyne,6,Armando,Mendoza,,,(303)725-2934,(303)725-2934,5855 W Hampden Ave #3206,"Denver, CO 80227",Father,Hatcher,
Mendoza-Martinez,Brayan,6,Vicente,Mendoza,,(303)922-0426,(720)205-2129,,512 S Yates St,"Denver, CO 80219",Father,Budde,Zayas
Mendoza-Sanchez,Brandon,7,Luis,Mendoza-Ramirez,,,,,3297 S Santa Fe  Dr #2,"Englewood, CO 80110-2124",Father,Lusa,
Mendoza-Sanchez,Brandon,7,Susana,Sanchez-Santos,,,,,3297 S Santa Fe  Dr #2,"Englewood, CO 80110-2124",Mother,Lusa,
Miguel,Gustavo,8,Maritza,Gomez,maritza12gomez.s@gmail.com,(720)629-1778,(720)568-0567,(303)742-4749,620 S Canosa Ct,"Denver, CO 80219",Mother,Pochette,
Miguel,Gustavo,8,Antonio,Miguel,aguilas303@gmail.com,,(720)629-1778,(303)742-4749,620 S Canosa Ct,"Denver, CO 80219",Father,Pochette,
Miramontes,Melany,6,Carolina,Miramontes,miramontescarol20@gmail.com,,(720)364-4073,,3141 S Santa Fe Dr #11,"Englewood, CO 80110",Mother,Hatcher,
Miramontes-Lopez,Jesus,7,Luz,Lopez,,(720)436-7178,(720)436-7178,,1674 S Vrain St,"Denver, CO 80219-4439",Mother,Dubay,
Miramontes-Lopez,Jesus,7,Alejandro,Miramontes,,(720)436-7178,(720)840-0426,,1674 S Vrain St,"Denver, CO 80219-4439",Father,Dubay,
Miranda-Anguiano,Brisa,7,Maria,Anguiano,,,(720)485-1990,,2912 S Federal Blvd #301,"Denver, CO 80236",Mother,King,
Miranda-Anguiano,Brisa,7,Maria,Anguiano,,,(720)485-1990,,3080 S Federal Blvd #301,"Denver, CO 80236-2748",Mother,King,
Miranda-Anguiano,Brisa,7,Juan,Miranda,,(720)377-6951,(720)377-6951,,2912 S Federal Blvd #301,"Denver, CO 80236",Father,King,
Miranda-Anguiano,Brisa,7,Juan,Miranda,,(720)377-6951,(720)377-6951,,3080 S Federal Blvd #301,"Denver, CO 80236-2748",Father,King,
Miranda-Portillo,Carlos,7,Jose,Miranda,,,(720)236-4865,,1800 S Knox Ct,"Denver, CO 80219",Father,Moreno,Mohr
Miranda-Portillo,Carlos,7,Francisca,Portillo,,,(720)229-3829,,1800 S Knox Ct,"Denver, CO 80219",Mother,Moreno,Mohr
Molina-Quinones,Adriana,7,Mario,Molina,,,(720)403-5124,,669 S Perry St,"Denver, CO 80219-2641",Father,Abbott,
Molina-Quinones,Adriana,7,Rosalba,Quinone,quinones458@gmail.com,,(720)808-2473,,669 S Perry St,"Denver, CO 80219-2641",Mother,Abbott,
Molina-Sillas,Angel,8,Santos,Molina,,,(720)569-7562,,1894 S Tennyson St,"Denver, CO 80219",Father,Parks,
Molina-Sillas,Angel,8,Karla,Sillas,,,(720)365-0475,(720)569-7562,1894 S Tennyson St,"Denver, CO 80219",Mother,Parks,
Monreal,Alexia,8,Mireya,Adame,mireya2139@gmail.com,(504)292-9537,(720)278-4555,,4156 S Dale Ct,"Englewood, CO 80110-4304",Mother,Nelsen,
Monroy-Aviles,Jacqueline,7,Frances,Aviles,francesaviles@icloud.com,,(303)229-9587,,2799 S Grove St,"Denver, CO 80236-2521",Mother,Wold,
Montanez-Espinoza,Yareli,7,Ermelinda,Montanez,,,(720)371-1307,,4830 W 5th Ave,"Denver, CO 80204",Mother,Wold,
Montanez-Espinoza,Yareli,7,Tomas,Montanez,,,(720)313-4101,,4830 W 5th Ave,"Denver, CO 80204",Father,Wold,
Montenegro,Jenna,8,Adrianne,Medina,adriannemedina@yahoo.com,,(720)989-3069,,2076 S Newton St,"Denver, CO 80219",Mother,Coszalter,
Montenegro,Joaquin,8,Adrianne,Medina,adriannemedina@yahoo.com,,(720)989-3069,,2076 S Newton St,"Denver, CO 80219",Mother,Mulkey,
Montes-Gonzalez,Mitzy,8,Minerva,Gonzalez-Celis,minerva84311@gmail.com,,(720)503-8626,,3085 W Virginia Ave,"Denver, CO 80219-2821",Mother,Elledge,
Montes-Gonzalez,Mitzy,8,Adrian,Montes-Gomez,,(720)829-1267,(303)419-9527,,3085 W Virginia Ave,"Denver, CO 80219-2821",Father,Elledge,
Montes-Perez,Emily,6,Roberto,Montes,,,(720)404-2251,(303)969-9700,2775 S Federal Blvd #209,"Denver, CO 80236",Father,Dendle,
Montes-Perez,Emily,6,Rosa,Perez,rosape1981@gmail.com,,(720)404-2251,,2775 S Federal Blvd #209,"Denver, CO 80236",Mother,Dendle,
Montoya,Antonia,8,Antonio,Montoya,amon5050@gmail.com,,(720)261-2006,,1795 S Decatur St,"Denver, CO 80219",Father,Elledge,
Montoya,Antonia,8,Renee,Montoya,777toya@gmail.com,,(303)642-6101,,1795 S Decatur St,"Denver, CO 80219",Mother,Elledge,
Montoya,Seth,8,Daniel,Montoya,danmontoya425@gmail.com,,(720)229-9817,,3060 W Ohio Ave,"Denver, CO 80219",Father,Parks,
Montoya,Shawn,8,Shawn,Montoya,,,(720)447-1777,,1300 S Beach Ct,"Denver, CO 80219-4214",Father,Parks,
Montoya,Shawn,8,Jovan,Pacheco,,,(720)296-6594,,1300 S Beach Ct,"Denver, CO 80219-4214",Mother,Parks,
Morales,Gina,7,Maria,Carrillo,gijoka@live.com.mx,,(303)526-6225,,5174 W Columbia Pl,"Denver, CO 80236",Mother,Haserodt,
Morales,Guaymer,6,Selvin,Morales,,,(303)591-8640,,3180 S Federal Blvd #B1-2,"Denver, CO 80236-6022",Father,Castanzo,
Morales,Jorge,8,Maria,Carrillo,gijoka@live.com.mx,,(303)526-6225,,5174 W Columbia Pl,"Denver, CO 80236",Mother,Mulkey,
Morales-Carlos,Christopher,7,Ana,Huerta,,,(720)375-1567,(303)278-0418,227 S Meade St,"Denver, CO 80219-1939",Mother,Gish,
Morales-Carlos,Christopher,7,Alberto,Morales,,,(720)416-0712,,227 S Meade St,"Denver, CO 80219-1939",Father,Gish,
Morales-Carlos,Jason,8,Ana,Huerta,,,(720)375-1567,(303)278-0418,227 S Meade St,"Denver, CO 80219-1939",Mother,Mulkey,
Morales-Carlos,Jason,8,Alberto,Morales,,,(720)416-0712,,227 S Meade St,"Denver, CO 80219-1939",Father,Mulkey,
Morales-Maldonado,Daniel,6,Silvia,Maldonado,silviamaldonado313@gmail.com,,(720)938-8067,,36 S Alcott St,"Denver, CO 80219",Mother,Castanzo,
Morales-Maldonado,Daniel,6,Rodrigo,Morales,moralesrodri04@gmail.com,,(720)229-3951,(303)937-1000,36 S Alcott St,"Denver, CO 80219",Father,Castanzo,
Morales-Maldonado,Rodrigo,8,Silvia,Maldonado,silviamaldonado313@gmail.com,,(720)938-8067,,36 S Alcott St,"Denver, CO 80219",Mother,Pochette,
Morales-Maldonado,Rodrigo,8,Rodrigo,Morales,moralesrodri04@gmail.com,,(720)229-3951,(303)937-1000,36 S Alcott St,"Denver, CO 80219",Father,Pochette,
Moreno,Benjamin,6,Clemente,Moreno,,,(720)621-0555,,2730 W Harvard Ave,"Denver, CO 80219",Father,Budde,Zayas
Moreno,Benjamin,6,Eva,Moreno,eva.moreno@anthem.com,,(720)227-6934,,2730 W Harvard Ave,"Denver, CO 80219",Mother,Budde,Zayas
Moreno,Carolyne,7,Clemente,Moreno,,,(720)621-0555,,2730 W Harvard Ave,"Denver, CO 80219",Father,Dunn,
Moreno,Carolyne,7,Eva,Moreno,eva.moreno@anthem.com,,(720)227-6934,,2730 W Harvard Ave,"Denver, CO 80219",Mother,Dunn,
Moreno,Diego,6,Cynthia,Baquera,Laflacacbm@aol.com,,(720)394-0332,,786 S Yates St,"Denver, CO 80219",Mother,Goldberg,
Moreno,Rubi,8,Clemente,Moreno,,,(720)621-0555,,2730 W Harvard Ave,"Denver, CO 80219",Father,Strickland,McClellan
Moreno,Rubi,8,Eva,Moreno,eva.moreno@anthem.com,,(720)227-6934,,2730 W Harvard Ave,"Denver, CO 80219",Mother,Strickland,McClellan
Morett-Lozoya,Daniel,7,Jose,Terrazas,,,(720)317-3876,,3335 W Alaska Pl,"Denver, CO 80219-2731",Step-Father,Solomon,
Morett-Lozoya,Daniel,7,Myrna,Terrazas-Lozoya,Myrnatr16@gmail.com,,(720)435-1964,(720)981-4763,3335 W Alaska Pl,"Denver, CO 80219-2731",Mother,Solomon,
Mosqueda-Miranda,Angel,6,Brenda,Miranda-Reyes,,,(720)692-3590,,512 S Raleigh St,"Denver, CO 80219-2548",Mother,Budde,
Munoz-SantaCruz,Manuel,6,Manuel,Munoz,,,(720)313-2330,,1290 S Quivas St,"Denver, CO 80223-3024",Father,Goldberg,
Munoz-SantaCruz,Manuel,6,Alma,SantaCruz,,,(720)218-3830,,1290 S Quivas St,"Denver, CO 80223-3024",Mother,Goldberg,
Musa,Abdi,6,Isha,Hassan,gamaromar143@yahoo.com,,(720)586-7273,,3041 S Bryant St,"Denver, CO 80236",Mother,Budde,
Musa,Abdi,6,Omar,Masakira,musa@rucketmail.com,(303)761-1664,(720)400-5666x0,,3041 S Bryant St,"Denver, CO 80236",Father,Budde,
Najera-Reyes,Carlos,6,Carlos,Najera-Santiago,,,(720)434-4441,,1697 S Stuart St,"Denver, CO 80219",Father,Goldberg,
Najera-Reyes,Carlos,6,Norma,Reyes-Jimenez,reyesnorma1@comcast.net,,(720)377-4157,,1697 S Stuart St,"Denver, CO 80219",Mother,Goldberg,
Najera-Reyes,Jazmine,8,Carlos,Najera-Santiago,,,(720)434-4441,,1697 S Stuart St,"Denver, CO 80219",Father,Nelsen,McClellan
Najera-Reyes,Jazmine,8,Norma,Reyes-Jimenez,reyesnorma1@comcast.net,,(720)377-4157,,1697 S Stuart St,"Denver, CO 80219",Mother,Nelsen,McClellan
Naranjo-Jimenez,Daniela,7,Rocio,Jimenez,wilbernaranjo84@live.com,,(720)621-5971,,11 Newton St,"Denver, CO 80219-1309",Mother,Haserodt,
Naranjo-Jimenez,Daniela,7,Wilber,Naranjo,rocionaranjo84@hotmail.com,(720)629-3625x,(720)621-5971,,11 Newton St,"Denver, CO 80219-1309",Father,Haserodt,
Navarrete-Loya,Ezequiel,7,Fidel,Navarrete,,,(720)877-6123,,2707 S Decatur St,"Denver, CO 80236",Father,Lusa,
Navarrete-Loya,Ezequiel,7,Maria,Navarrete,inkieta75@hotmail.com,(303)408-6633,,,2707 S Decatur St,"Denver, CO 80236",Mother,Lusa,
Navarro-Tarin,Melanie,7,Jose,Abraham-Navarro,,,(720)935-3075,(303)936-5701,1314 S Wolff St,"Denver, CO 80219",Father,Dunn,Mohr
Navarro-Tarin,Melanie,7,Sayra,Tarin,SayraTarin@gmail.com,(720)935-3075,(720)876-7041,(303)936-5701,1314 S Wolff St,"Denver, CO 80219",Mother,Dunn,Mohr
Navarro-Tarin,Natalie,7,Jose,Abraham-Navarro,,,(720)935-3075,(303)936-5701,1314 S Wolff St,"Denver, CO 80219",Father,Abbott,Mohr
Navarro-Tarin,Natalie,7,Sayra,Tarin,SayraTarin@gmail.com,(720)935-3075,(720)876-7041,(303)936-5701,1314 S Wolff St,"Denver, CO 80219",Mother,Abbott,Mohr
Nevarez-Borunda,Analiz,6,Maria,Borunda,,,(720)249-8388,,2040 S Federal Blvd #23,"Denver, CO 80219",Mother,Santare,
Nevarez-Borunda,Analiz,6,Uriel,Nevarez,,,(720)447-6117,,2040 S Federal Blvd #23,"Denver, CO 80219",Father,Santare,
Ngo,Amy,7,Nhung,Le,nhingo10@gmail.com,(720)514-3154,(720)519-6982,,2661 W Amherst Ave,"Denver, CO 80236",Mother,Abbott,
Ngo,Amy,7,Hung,Ngo,nhingo10@gmail.com,,(720)514-2696,,2661 W Amherst Ave,"Denver, CO 80236",Father,Abbott,
Nguyen,Dat,7,Tien,Lam,Tien.Lam0174@gmail.com,,(720)662-8114,,3492 W Ohio Ave,"Denver, CO 80219-3362",Mother,GIsh,
Nguyen,Dat,7,Minh,Nguyen,minh.nguyen0270@gmail.com,,(720)499-7404,,3492 W Ohio Ave,"Denver, CO 80219-3362",Father,Gish,
Nguyen,Hoang,6,Vinh,Nguyen,camnhung28@yahoo.com,,(720)394-4197,,1014 S Grove St,"Denver, CO 80219-3402",Father,Goldberg,
Nguyen,Hoang,6,Nhung,Tran,camnhung28@yahoo.com,,(720)394-4274,,1014 S Grove St,"Denver, CO 80219-3402",Mother,Goldberg,
Nguyen,Long,8,Nhung,Do,,(720)309-7249,(720)939-0260,,1436 S Irving St #A123,"Denver, CO 80219",Mother,Parks,
Nguyen,Long,8,Ba,Nguyen,,(720)309-7249,(303)875-4058,,1436 S Irving St #A123,"Denver, CO 80219",Father,Parks,
Nguyen,Ryan,6,Han,Nguyen,hantrangnguyen@yahoo.com,,(720)499-5205,,2640 W Jewell Ave,"Denver, CO 80219",Father,Thompson,
Nguyen,Ryan,6,Trang,Tran,lynn.nguyen1163@gmail.com,,(719)321-5856,,2640 W Jewell Ave,"Denver, CO 80219",Mother,Thompson,
Nguyen,Thy,7,Tram,Nguyen,Trish1127@yahoo.com,,(720)568-9438,,2703 S Vrain St,"Denver, CO 80236-2112",Mother,Abbott,
Nguyen,Truc,7,Trong,Nguyen,trongnguyen1963@q.com,,(720)299-6344,,2360 W Dartmouth  Ave,"Sheridan , CO 80110-1940",Father,Dubay,
Nguyen,Truc,7,Trong,Nguyen,trongnguyen1963@q.com,,(720)299-6344,,2485 W Warren Ave,"Denver, CO 80219",Father,Dubay,
Nguyen,Truc,7,Trinh,Pham,,(720)271-3153,,,2360 W Dartmouth  Ave,"Sheridan , CO 80110-1940",Mother,Dubay,
Nguyen,Truc,7,Trinh,Pham,,(720)271-3153,,,2485 W Warren Ave,"Denver, CO 80219",Mother,Dubay,
Ocampo-Aguirre,Juan,6,Yadira,Aguirre-Solis,,,,,3400 S Lowell Blvd #1-101,"Denver, CO 80236-2412",Mother,Castanzo,
Ochoa,David,7,Maribel,Ochoa,maryochoa81@gmail.com,,(303)941-4060,,2755 S Decatur St #B,"Denver, CO 80236",Mother,Moreno,
Olguin-Garcia,Keionna,7,Vicente,Olguin,volguin.jr@yahoo.com,,(303)999-9207,(303)364-7100,2915 W College Ave,"Denver, CO 80219",Father,Wold,
Olguin-Garcia,Keionna,7,Mary,Olguin-Garcia,olguin.garcia1984@gmail.com,,(720)499-5917,,2915 W College Ave,"Denver, CO 80219",Mother,Wold,
Olguin-Garcia,Vanessa,6,Vicente,Olguin,volguin.jr@yahoo.com,,(303)999-9207,(303)364-7100,2915 W College Ave,"Denver, CO 80219",Father,Hatcher,
Olguin-Garcia,Vanessa,6,Mary,Olguin-Garcia,olguin.garcia1984@gmail.com,,(720)499-5917,,2915 W College Ave,"Denver, CO 80219",Mother,Hatcher,
Olivas-Quiroz,Brandon,7,Edgar,Olivas,,,(720)436-6684,,2322 S Winona Ct,"Denver, CO 80219",Father,Solomon,
Olivas-Quiroz,Brandon,7,Hilda,Quiroz,hildaqui@gmail.com,(303)935-6073x,(303)935-6073,,2322 S Winona Ct,"Denver, CO 80219",Mother,Solomon,
Olvera-Camacho,Evelyn,7,Adriana,Camacho,adrianacamacho1189@hotmail.com,,(720)226-7620,,3245 W Kentucky Ave,"Denver, CO 80219-3449",Mother,King,
Olvera-Camacho,Evelyn,7,Luis,Olvera,,,(720)226-7618,,3245 W Kentucky Ave,"Denver, CO 80219-3449",Father,King,
Ontiveros-Cereceres,Estrella,7,Cintya,Cereceres-Nevarez,graceontiveros79@gmail.com,,(720)621-6862,,3150 S Platte River Dr #6,"Englewood, CO 80110-2125",Mother,Haserodt,
Ontiveros-Cereceres,Estrella,7,Modesto,Ontiveros,,,(720)318-7001,,3150 S Platte River Dr #6,"Englewood, CO 80110-2125",Father,Haserodt,
Ordonez,Jairo,6,Norma,Ordonez,ordoneznorma05@gmail.com,,(720)522-2990,(720)424-6299,1532 S Newton St,"Denver, CO 80219",Mother,Thompson,
Ordonez,Omar,6,Andres,Ordonez,OrdonezLXX111@hotmail.com,,(303)918-8586,,5775 W Dartmouth Ave #8-106,"Denver, CO 80227-5581",Father,Budde,
Ordonez,Omar,6,Claudia,Ordonez,claudiaordonez170@gmail.com,,,,5775 W Dartmouth Ave #8-106,"Denver, CO 80227-5581",Mother,Budde,
Orndoff,Nicholas,7,Joseph,Orndoff,jorndoff2002@yahoo.com,,(303)726-4962,(303)318-9093,2501 W Arkansas Ave,"Denver, CO 80219-4207",Father,Moreno,
Orndoff,Nicholas,7,Joseph,Orndoff,jorndoff2002@yahoo.com,,(303)726-4962,(303)318-9093,8659 W Virginia Ave,"Lakewood, CO 80226",Father,Moreno,
Orndoff,Nicholas,7,Laura,Orndoff,,,(303)726-5083,,2501 W Arkansas Ave,"Denver, CO 80219-4207",Mother,Moreno,
Orndoff,Nicholas,7,Laura,Orndoff,,,(303)726-5083,,8659 W Virginia Ave,"Lakewood, CO 80226",Mother,Moreno,
Orozco-Hugo,Abigail,8,Faviola,Hugo-Martinez,fernandoo293@hotmail.com,,(720)979-8835,,1815 S Michigan Way,"Denver, CO 80219",Mother,Coszalter,
Orozco-Hugo,Abigail,8,Fernando,Orozco-DelaTorre,,,(303)875-9938,(303)934-9130,1815 S Michigan Way,"Denver, CO 80219",Father,Coszalter,
Orozco-Hugo,Amber,7,Faviola,Hugo-Martinez,fernandoo293@hotmail.com,,(720)979-8835,,1815 S Michigan Way,"Denver, CO 80219",Mother,Dunn,
Orozco-Hugo,Amber,7,Fernando,Orozco-DelaTorre,,,(303)875-9938,(303)934-9130,1815 S Michigan Way,"Denver, CO 80219",Father,Dunn,
Ortega,Eric,7,Letticia,Olivas,letticiaolivas30@gmail.com,,(720)725-9088,,3205 W Center Ave,"Denver, CO 80219",Mother,Solomon,
Ortega,Persayez,6,Letticia,Olivas,letticiaolivas30@gmail.com,,(720)725-9088,,3205 W Center Ave,"Denver, CO 80219",Mother,Hatcher,
Ortiz,Johanna,8,Noralba,Munoz,noralbamunoz@gmail.com,(303)901-1513,,,2875 W Cornell Ave,"Denver, CO 80236",Mother,Infanzon,
Ortiz,Johanna,8,Santiago,Ortiz,,,(303)901-1513,,2875 W Cornell Ave,"Denver, CO 80236",Father,Infanzon,
Ortiz-MaClala,Leslie,7,Gloria,Maclala,,,(720)323-4564,,2400 W Wesley Ave,"Denver, CO 80219",Mother,King,
Ortiz-MaClala,Leslie,7,Gloria,Maclala,,,(720)323-4564,,2930 W Cornell Ave #300,"Denver, CO 80236",Mother,King,
Ortiz-MaClala,Leslie,7,Juan,Ortiz,,(720)300-3899,,,2400 W Wesley Ave,"Denver, CO 80219",Father,King,
Ortiz-MaClala,Leslie,7,Juan,Ortiz,,(720)300-3899,,,2930 W Cornell Ave #300,"Denver, CO 80236",Father,King,
Ortiz-Quinonez,Jacqueline,7,Edwin,Corral,,,(303)669-6538,,733 S Wolcott Ct,"Denver, CO 80219-2270",Step-Father,Dunn,
Ortiz-Quinonez,Jacqueline,7,Erica,Quinonez,ericaquinonez1@gmail.com,,(303)669-6541,,733 S Wolcott Ct,"Denver, CO 80219-2270",Mother,Dunn,
Ortiz-Rodriguez,Edgar,6,Manuel,Ortiz,manuelortiz1101@icloud.com,(720)364-2181,(303)949-9465,,1535 S Yates St,"Denver, CO 80219",Father,Budde,
Ortiz-Rodriguez,Edgar,6,Monica,Rodriguez,adricnaaguilera3@yahoo.com,(303)949-9465,(720)364-2181,,1535 S Yates St,"Denver, CO 80219",Mother,Budde,
Ovando-Gomez,Jason,7,Maria,Gomez,gomezovando123@gmail.com,(720)690-9945x,(720)447-0674,,5855 W Hampden Ave #2203,"Denver, CO 80227-5341",Mother,Dubay,
Ovando-Gomez,Jason,7,Jose,Ovando,gomezovando123@gmail.com,,(720)690-9945,,5855 W Hampden Ave #2203,"Denver, CO 80227-5341",Father,Dubay,
Pacheco,Donald,8,Twilight,Bingham,coktmb01@gmail.com,,(720)590-7562,,3150 W Floyd Ave #13,"Englewood, CO 80110-7210",Mother,Glasspoole,
Pacheco,Donald,8,Mark,Pacheco,markpacheco46@gmail.com,,(720)745-6323,,3150 W Floyd Ave #13,"Englewood, CO 80110-7210",Father,Glasspoole,
Padilla,Esmeralda,6,Angie,Martinez,martinezangie44@yahoo.com,,(720)440-0341,,2692 S Federal Blvd #317,"Denver, CO 80219",Mother,Knox,
Padilla-Escaname,Jose,7,Mayra,Escaname,82isabeles@gmail.com,,(720)473-3158,(720)589-5898,3504 W Virginia Ave,"Denver, CO 80219-2742",Mother,Moreno,
Padilla-Gonzalez,Alejandro,8,Hilda,Gonzalez-Arambula,,(720)436-4764,(720)569-4886,,134 Hazel Ct,"Denver, CO 80219",Mother,Mulkey,
Padilla-Gonzalez,Joanna,7,Hilda,Gonzalez-Arambula,,(720)436-4764,(720)569-4886,,134 Hazel Ct,"Denver, CO 80219",Mother,Wold,
Padilla-Valdez,Richard,8,Jessica,Valdez,Handsome8405@gmail.com,(720)785-4090,(720)435-8359,,1634 S Newton St,"Denver, CO 80219",Mother,Pochette,
Palacio-Soledad,Katherine,7,Claudia,Soledad,c.solelopez.csl@gmail.com,,(720)401-6530,,2671 S Newton St,"Denver, CO 80219-5744",Mother,Haserodt,
Peacock,Katrina,8,Karl,Peacock,karlpeacock@ymail.com,,(720)354-0544,,3200 W Floyd Ave #16,"Englewood, CO 80110-7217",Father,Infanzon,
Peralta-Estrada,Jessie,7,Jose,Peralta,,,(720)569-9811,,1254 S Beach Ct,"Denver, CO 80219",Father,Lusa,
Perez,Sarai,8,Cecilia,Vazquez,gueritah73@yahoo.com,(720)885-5988,(303)995-7392,,1015 S Eliot St #A,"Denver, CO 80219",Mother,Nelsen,
Perez-Diaz,Edwauin,8,Rosa,Diaz,,(720)621-7677,(720)621-7677,,2690 S Decatur St,"Denver, CO 80219",Mother,Pochette,
Perez-Diaz,Edwauin,8,Alejandro,Perez,,(720)621-7677,(720)989-0490,,2690 S Decatur St,"Denver, CO 80219",Father,Pochette,
Perez-Diaz,Mike,6,Rosa,Diaz,,(720)621-7677,(720)621-7677,,2690 S Decatur St,"Denver, CO 80219",Mother,Goldberg,
Perez-Diaz,Mike,6,Alejandro,Perez,,(720)621-7677,(720)989-0490,,2690 S Decatur St,"Denver, CO 80219",Father,Goldberg,
Perez-Perez,Juan,6,Juan,Perez,,(303)356-8065,(303)451-7035,(303)356-8065,1825 S Shoshone St,"Denver, CO 80223-3732",Father,Goldberg,
Perez-Perez,Juan,6,Juana,Perez,juanaperez61314@gmail.com,,(720)419-4574,,1825 S Shoshone St,"Denver, CO 80223-3732",Mother,Goldberg,
Pineda-Tellez,Lesly,7,Tereso,Pineda-Diera,,,(303)877-8151,,2830 W Bates Ave,"Denver, CO 80236",Father,Wold,
Pineda-Tellez,Lesly,7,Maria,Tellez,delistellez24@gmail.com,(720)346-4359,(303)877-8151,,2830 W Bates Ave,"Denver, CO 80236",Mother,Wold,
Pinedo,Christopher,7,Esmeralda,Olvera,cmpinedo58@hotmail.com,(720)345-1706,(720)345-1706,,3180 S Federal Blvd #C1-1,"Denver, CO 80236-6022",Mother,Gish,Mohr
Pinedo,Christopher,7,Marcos,Pinedo,cmpinedo58@gmail.com,,(720)725-6004,(303)470-5862,3180 S Federal Blvd #C1-1,"Denver, CO 80236-6022",Father,Gish,Mohr
Pioquinto-Pacheco,Bryan,7,Lucila,Cruz,,(720)234-6575,,,5855 W Hampden Ave #2202,"Denver, CO 80227",Grandmother,Dubay,Mohr
Pioquinto-Pacheco,Bryan,7,Nayeli,Pacheco,NayeliPacheco11@gmail.com,,(303)960-5085,,5855 W Hampden Ave #2202,"Denver, CO 80227",Mother,Dubay,Mohr
Pioquinto-Pacheco,Bryan,7,Ramiro,Pioquinto,,,(303)887-1501,,5855 W Hampden Ave #2202,"Denver, CO 80227",Father,Dubay,Mohr
Poblete-Martinez,Lizbeth,6,Francisca,Martinez,,,(720)441-0063,(303)979-9746,2775 S Federal Blvd #302,"Denver, CO 80236-2632",Mother,Dendle,
Preciado-Betancourt,Jose,6,Cruz,Betancourt-Amaya,Edeliamaya@gmail.com,(720)519-8912,(720)285-0095,,921 S Quitman St,"Denver, CO 80219",Mother,Budde,
Preciado-Betancourt,Valeria,8,Cruz,Betancourt-Amaya,Edeliamaya@gmail.com,(720)519-8912,(720)285-0095,,921 S Quitman St,"Denver, CO 80219",Mother,Infanzon,
Puente,Yalonda,7,Virginia,Puente,,(303)948-1774,(720)884-0167,,3117 W Exposition Ave,"Denver, CO 80219",Grandmother,King,
Puentes-Garcia,Jazminn,7,Lucy,Garcia,,,(720)338-9464,,1430 S King Ct,"Denver, CO 80219",Mother,Dunn,
Quezada,Ayalett,8,Luis,Quezada,,(303)727-9615,(303)921-2704,(720)385-6990,2196 W Iliff Ave,"Englewood, CO 80110-1028",Father,Coszalter,
Quezada,Ayalett,8,Susana,Venzor,,(303)921-2704,(720)862-9790,,2196 W Iliff Ave,"Englewood, CO 80110-1028",Mother,Coszalter,
Quintana,Daisy,6,Vicenta,Cardiel,,,(720)249-7717,,1937 S Julian Cir,"Denver, CO 80219",Mother,Santare,
Quintana,Daisy,6,Luis,Quintana,,,(720)628-3662,,1937 S Julian Cir,"Denver, CO 80219",Father,Santare,
Quintana,Jayla,7,Carey,Quintana,Quintanasia@comcast.net,,(303)929-7954,,2532 S Winona Ct,"Denver, CO 80219",Father,Abbott,
Quintana,Jayla,7,Francine,Quintana,Quintanasia@comcast.net,(303)955-4208x,(720)206-7387,,2532 S Winona Ct,"Denver, CO 80219",Mother,Abbott,
Quintanilla,James,7,Maria,Alvarado,,,(303)968-7877,,5169 W Exposition Ave,"Denver, CO 80219",Mother,Moreno,Mohr
Quintanilla,James,7,James,Quintanilla,,,(303)594-5988,(303)936-0303,5169 W Exposition Ave,"Denver, CO 80219",Father,Moreno,Mohr
Quiroga-Ibarra,Miguel,7,Ana,Ibarra,anaibarra920.ai@gmail.com,,(720)338-1596,,2850 S Federal Blvd #111,"Denver, CO 80236",Mother,Dubay,
Ramirez-Medina,Jimena,8,Gerardo,Ramirez,ramirez.gerardo73@gmail.com,,(303)591-5517,,3435 W Louisiana Ave,"Denver, CO 80219-3935",Father,Strickland,
Ramirez-Medina,Jimena,8,Maria,Ramirez,,,(303)990-1359,,3435 W Louisiana Ave,"Denver, CO 80219-3935",Mother,Strickland,
Ramos,Jacob,8,Marianne,Ramos,Marianne.Ramos@state.co.us,,(720)443-8933,(303)894-2519,4935 W Lakeridge Rd,"Denver, CO 80219",Mother,Pochette,McClellan
Ramos,Jacob,8,Ted,Ramos,Ted_Ramos@q.com,,(303)720-9393,(720)999-2120,4935 W Lakeridge Rd,"Denver, CO 80219",Father,Pochette,McClellan
Rankin,Aaliyah,6,Frances,Aviles,francesaviles@icloud.com,,(303)229-9587,,2799 S Grove St,"Denver, CO 80236-2521",Mother,Hatcher,
Rascon-Ordonez,Tahany,6,Blanca,Ordonez,,,(720)461-0067,,2929 W Floyd Ave #223,"Denver, CO 80236-6012",Mother,Santare,
Reed,Yarion,6,Yanicha,Coleman,,,(720)550-3176,,3371 W Cedar Ave,"Denver, CO 80219",Mother,Budde,Zayas
Reveles,Ashley,8,Ivan,Reveles,,,(915)309-2862,,1070 S Knox Ct,"Denver, CO 80219",Father,Infanzon,
Reveles,Ashley,8,Julieta,Reveles-Lozano,JL02805@gmail.com,,(915)309-2862,,1070 S Knox Ct,"Denver, CO 80219",Mother,Infanzon,
Reyes,Axel,7,Daniel,Jimenez,,(720)291-2550,(303)257-3205,,1641 S Knox Ct,"Denver, CO 80219",Father,Lusa,
Reyes,Axel,7,Norma,Reyes,,(303)257-3205,(720)291-2550,,1641 S Knox Ct,"Denver, CO 80219",Mother,Lusa,
Reyes-Duran,Joselyn,6,Gisela,Duran,gisela.duran1719@gmail.com,(720)473-9395,(720)939-6940,,3080 S Yates St,"Denver, CO 80236",Mother,Santare,
Reyes-Duran,Joselyn,6,Luis,Reyes,gisela.duran1719@gmail.com,,(720)939-6940,,3080 S Yates St,"Denver, CO 80236",Father,Santare,
Reyes-Duran,Mercedes,7,Gisela,Duran,gisela.duran1719@gmail.com,(720)473-9395,(720)939-6940,,3080 S Yates St,"Denver, CO 80236",Mother,Dunn,
Reyes-Duran,Mercedes,7,Luis,Reyes,gisela.duran1719@gmail.com,,(720)939-6940,,3080 S Yates St,"Denver, CO 80236",Father,Dunn,
Reyes-Hernandez,Derek,6,Celeste,Hernandez,celestehernandez1982@yahoo.com,,(720)621-1757,,2420 S Sheridan Blvd,"Denver, CO 80227-3703",Mother,Budde,
Reyes-Hernandez,Derek,6,Daniel,Reyes-Jurado,,,,,2420 S Sheridan Blvd,"Denver, CO 80227-3703",Father,Budde,
Reyes-Santana,Jazmin,8,Luis,Reyes,,,(720)404-9777,,541 S Xavier St,"Denver, CO 80219",Father,Elledge,
Reyes-Santana,Jazmin,8,Marisol,Reyes,maricelar100@yahoo.com,(720)202-9278,(720)202-9278,,541 S Xavier St,"Denver, CO 80219",Mother,Elledge,
Rios-Ibarra,Rolando,7,Marisa,Ibarra,marisasanchez0912@gmail.com,,(720)579-5781,,7080 W 16th Pl #1,"Lakewood, CO 80214-5355",Mother,Dubay,
Rios-Ibarra,Rolando,7,Rodrigo,Rios,,(720)579-5781,,,7080 W 16th Pl #1,"Lakewood, CO 80214-5355",Father,Dubay,
Rios-Morgan,Grisell,8,Maria,Morgan,,,(720)207-3179,,3663 S Sheridan Blvd #I4,"Denver, CO 80235",Mother,Coszalter,
Rios-Morgan,Grisell,8,Honorio,Rios,,,(720)345-2705,,3663 S Sheridan Blvd #I4,"Denver, CO 80235",Father,Coszalter,
Rios-Rodriguez,Karla,7,Raul,Rios,,,(720)499-6017,,3550 S Kendall St #9-301,"Denver, CO 80235-2669",Father,Haserodt,
Rios-Rodriguez,Karla,7,Patricia,Rodriguez,crystalcleaningusa@gmail.com,,(720)774-1130,,3550 S Kendall St #9-301,"Denver, CO 80235-2669",Mother,Haserodt,
Rivas,Wendy,7,Suleyma,Quijada,Sully_0516@hotmail.com,(720)484-9861x,(720)484-9861,,460 S Lowell Blvd,"Denver, CO 80219",Mother,Abbott,
Rivas,Wendy,7,Jose,Rivas,joseRivas11@hotmail.com,,(720)484-9470,,460 S Lowell Blvd,"Denver, CO 80219",Father,Abbott,
Rivas-Sanchez,Charmane,6,Daniel,Rivas,rivasdaniel662@gmail.com,(303)322-7666,(303)653-6024,,2204 S Newton St,"Denver, CO 80219",Father,Izaguirre,
Rivas-Sanchez,Charmane,6,Marvella,Sanchez,rivasdaniel662@gmail.com,(720)638-3255,(303)548-8442,,2204 S Newton St,"Denver, CO 80219",Mother,Izaguirre,
Robinson,Jenna,6,Elgin,Robinson,,,(303)829-7480,,3096 S Decatur St,"Denver, CO 80236-2709",Father,Izaguirre,
Robinson,Jenna,6,Jessica,Robinson,,,(303)246-7386,,3096 S Decatur St,"Denver, CO 80236-2709",Mother,Izaguirre,
Robles,Osbaldo,8,Fanny,Robles-Landa,,,(720)238-5854,,3051 W Ohio Ave,"Denver, CO 80219-3428",Mother,Pochette,
Robles-Olvera,Jacqueline,6,Erika,Olvera,titorobles@hotmail.com,(720)569-3208,(720)642-2822,,920 S Utica St #3,"Denver, CO 80219",Mother,Dendle,
Robles-Olvera,Jacqueline,6,Adalberto,Robles,titorobles@hotmail.com,,(720)569-3208,,920 S Utica St #3,"Denver, CO 80219",Father,Dendle,
Rodriguez,Alexia,8,Daisy,Chacon-Rodriguez,daisychacon123@gmail.com,,(720)380-0086,(303)202-9922,4433 W Tennessee Ave,"Denver, CO 80219-3115",Mother,Nelsen,
Rodriguez,Alyssa,8,Angel,Rodriguez,arod4u303@gmail.com,,(303)475-8449,(303)763-6222,1857 S Canosa Ct,"Denver, CO 80219-4911",Mother,Strickland,
Rodriguez,Alyssa,8,David,Rodriguez,drod4u@gmail.com,,(303)478-1322,,1857 S Canosa Ct,"Denver, CO 80219-4911",Father,Strickland,
Rodriguez,Daisy,7,Daisy,Chacon-Rodriguez,daisychacon123@gmail.com,,(720)380-0086,(303)202-9922,4433 W Tennessee Ave,"Denver, CO 80219-3115",Mother,Wold,
Rodriguez,Fritzleyn,8,Cynthia,Lara,,(970)518-1907,(970)576-2339,,3400 S Lowell Blvd #12-205,"Denver, CO 80236-2432",Mother,Elledge,
Rodriguez,Fritzleyn,8,Cynthia,Lara,,(970)518-1907,(970)576-2339,,4551 Eugene Way,"Denver, CO 80239",Mother,Elledge,
Rodriguez,Fritzleyn,8,Margarito,Rodriguez,,,(970)518-1907,,3400 S Lowell Blvd #12-205,"Denver, CO 80236-2432",Father,Elledge,
Rodriguez,Fritzleyn,8,Margarito,Rodriguez,,,(970)518-1907,,4551 Eugene Way,"Denver, CO 80239",Father,Elledge,
Rodriguez,Marbella,6,Josefina,Apodaca,josefinaapodaca@yahoo.com,(303)935-2356,(720)620-5456,(303)386-4434,355 S Grove St #315,"Denver, CO 80219-2828",Mother,Dendle,
Rodriguez,Marbella,6,Abel,Rodriguez,rodriguezabel45@yahoo.com,,(720)309-5323,,355 S Grove St #315,"Denver, CO 80219-2828",Father,Dendle,
Rodriguez-Medina,Andrea,7,Gabriela,Medina,gabymeza023@gmail.com,,(720)621-7778,,972 S Quitman St,"Denver, CO 80219",Mother,Abbott,
Rodriguez-Medina,Andrea,7,Ricardo,Rodriguez,,,(720)763-0867,,972 S Quitman St,"Denver, CO 80219",Father,Abbott,
Rodriguez-Medina,Gregory,8,Gabriela,Medina,gabymeza023@gmail.com,,(720)621-7778,,972 S Quitman St,"Denver, CO 80219",Mother,Glasspoole,
Rodriguez-Medina,Gregory,8,Ricardo,Rodriguez,,,(720)763-0867,,972 S Quitman St,"Denver, CO 80219",Father,Glasspoole,McClellan
Rodriguez-Rodriguez,Hector,8,Hector,Rodriguez,,,(720)641-6731,,50 S Julian St,"Denver, CO 80219",Father,Passenant,
Rodriguez-Rodriguez,Hector,8,Laura,Rodriguez-Gonzalez,laurarodriguez07@yahoo.com,,(720)620-5662,,50 S Julian St,"Denver, CO 80219",Mother,Passenant,
Rodriguez-Trujillo,Michele,7,Miriam,Trujillo,,(720)261-5953,(720)288-5178,,2775 S Federal Blvd #124,"Denver, CO 80236",Mother,King,
Rodriguez-Valenzuela,Osiel,8,Saul,Rodriguez,,,(720)329-4931,,1332 S Umatilla St,"Denver, CO 80223",Father,Passenant,
Rodriguez-Valenzuela,Osiel,8,Armida,Valenzuela,armyvale56@hotmail.com,(720)301-7252,,,1332 S Umatilla St,"Denver, CO 80223",Mother,Passenant,
Rojas,Rodolfo,6,Christine,Nevarez,cnman@msn.com,,(303)807-5701,(720)279-5728,1259 S Canosa Ct,"Denver, CO 80219-4268",Mother,Castanzo,
Rojas-Rivera,Roberto,8,Carmen,Rivera,,,(720)299-4894,,2771 W Iowa Ave,"Denver, CO 80219",Mother,Parks,
Rojas-Rivera,Roberto,8,Roberto,Rojas,,(303)727-9864,(720)999-2986,(303)292-3374,2771 W Iowa Ave,"Denver, CO 80219",Father,Parks,
Roldan,Arianna,6,Eric,Roldan,roldanfamily6@gmail.com,,(303)808-5565,(303)940-3932,945 S Eliot St,"Denver, CO 80219-3534",Father,Izaguirre,
Roldan,Arianna,6,Eric,Roldan,roldanfamily6@gmail.com,,(303)808-5565,(303)940-3932,PO Box 19918,"Denver, CO 80219-0918",Father,Izaguirre,
Romero,Daniela,6,Daniel,Romero,,,(720)862-5249,,3400 S Lowell Blvd #4-308,"Denver, CO 80236-2414",Father,Dendle,
Romero,Daniela,6,Yolanda,Romero,,(720)862-5249,(303)564-8388,,3400 S Lowell Blvd #4-308,"Denver, CO 80236-2414",Mother,Dendle,
Romero,Eduardo,8,Allison,Romero,all101ice@gmail.com,,(720)809-9427,,3265 S Bryant  St #203,"Englewood, CO 80110-1988",Mother,Passenant,
Romero,Olivia,6,Nanette,Romero,nvakdez@gmail.com,,(720)609-0645,,1001 E 62nd Ave #1247,"Denver, CO 80216-1140",Mother,Izaguirre,
Romero-Acosta,Sofia,7,Anallely,Acosta,,,(720)481-1784,,642 S Meade St,"Denver, CO 80219",Mother,Dunn,
Romero-Acosta,Sofia,7,Julio,Romero,,,(720)877-5328,,642 S Meade St,"Denver, CO 80219",Father,Dunn,
Ronquillo-Guevara,Alexandra,8,Erika,Guevara,alexandralr29@gmail.com,,(720)251-5857,,1010 S Meade St,"Denver, CO 80219-3343",Mother,Strickland,
Ronquillo-Guevara,Alexandra,8,Juan,Ronquillo,,,,,1010 S Meade St,"Denver, CO 80219-3343",Father,Strickland,
Rosales,Lusiano,8,Rosemary,Sanchez,rsmrysnchz@gmail.com,,(720)468-6470,(303)936-2035x0,1450 S Eliot St,"Denver, CO 80219-4719",Mother,Pochette,
Rosas-Garcia,Dafne,7,Juana,Garcia-Garcia,,,(720)771-0254,(303)986-0814,3400 S Lowell Blvd #8-102,"Denver, CO 80236-2454",Mother,Wold,
Ruiz-Rodriguez,Mia,7,Sandra,Rodriguez,lalily85.sr@gmail.com,,(720)341-2291,,3300 W Florida Ave #52,"Denver, CO 80219-3977",Mother,Dunn,
Ruiz-Rodriguez,Mia,7,Ruben,Ruiz-Bustillos,,,(720)341-1962,,3300 W Florida Ave #52,"Denver, CO 80219-3977",Father,Dunn,
Saiz,Ayden,8,Benjamin,Saiz,BenjaminKeith84@gmail.com,,(720)883-7351,,1395 S Quitman St,"Denver, CO 80219",Father,Parks,
Saiz,Ayden,8,Regina,Saiz,ReginaEileen85@aol.com,(720)434-7141,(720)495-8197,,1395 S Quitman St,"Denver, CO 80219",Mother,Parks,
Sanchez-Crespo,Alaiza,8,Elizabeth,Crespo-Araujo,elizabeth.crespo.el123@gmail.com,,(720)620-6323,(720)620-6323,3150 W Floyd Ave #7,"Englewood, CO 80110-7208",Mother,Infanzon,
Sanchez-Crespo,Alaiza,8,Moises,Sanchez-Rodriguez,,,(720)495-7213,,3150 W Floyd Ave #7,"Englewood, CO 80110-7208",Father,Infanzon,
Sanchez-Crespo,Eydan,6,Elizabeth,Crespo-Araujo,elizabeth.crespo.el123@gmail.com,,(720)620-6323,(720)620-6323,3150 W Floyd Ave #7,"Englewood, CO 80110-7208",Mother,Budde,
Sanchez-Crespo,Eydan,6,Moises,Sanchez-Rodriguez,,,(720)495-7213,,3150 W Floyd Ave #7,"Englewood, CO 80110-7208",Father,Budde,
Sanchez-Ruiz,Hector,6,Merced,Ruiz-Blanco,mercedruiz86@gmail.com,,(720)210-6235,,3120 W Iliff Ave #106B,"Denver, CO 80219-5465",Mother,Goldberg,
Sanchez-Ruiz,Hector,6,Hector,Sanchez-Santos,,(720)451-8677,(720)429-1351,,3120 W Iliff Ave #106B,"Denver, CO 80219-5465",Father,Goldberg,
Sanchez-Ruiz,Jacqueline,6,Merced,Ruiz-Blanco,mercedruiz86@gmail.com,,(720)210-6235,,3120 W Iliff Ave #106B,"Denver, CO 80219-5465",Mother,Izaguirre,
Sanchez-Ruiz,Jacqueline,6,Hector,Sanchez-Santos,,(720)451-8677,(720)429-1351,,3120 W Iliff Ave #106B,"Denver, CO 80219-5465",Father,Izaguirre,
Sanchez-Sanchez,Omar,8,Maria,Sanchez,Sanchezor2011@gmail.com,,(720)202-9281,,,",  ",Mother,Mulkey,
Sanchez-Sanchez,Omar,8,Maria,Sanchez,Sanchezor2011@gmail.com,,(720)202-9281,,2585 S Utica St,"Denver, CO 80219",Mother,Mulkey,
Sanchez-Sanchez,Omar,8,Sergio,Sanchez,sergiosanchez198208@gmail.com,,(720)363-5137,(303)472-8019,,",  ",Father,Mulkeu,
Sanchez-Sanchez,Omar,8,Sergio,Sanchez,sergiosanchez198208@gmail.com,,(720)363-5137,(303)472-8019,2585 S Utica St,"Denver, CO 80219",Father,Mulkey,
Sanchez-Trejo,Daniel,7,Arturo,Sanchez,,(303)947-9615,(303)947-9615,(720)981-3200,1575 S Yates St,"Denver, CO 80219",Father,Gish,Mohr
Sanchez-Trejo,Daniel,7,Arturo,Sanchez,,(303)947-9615,(303)947-9615,(720)981-3200,3400 S Lowell Blvd #10-202,"Denver, CO 80236-2430",Father,Gish,Mohr
Sanchez-Trejo,Daniel,7,Mayra,Trejo,sexymayra@msn.com,,(720)284-4074,,1575 S Yates St,"Denver, CO 80219",Mother,Gish,Mohr
Sanchez-Trejo,Daniel,7,Mayra,Trejo,sexymayra@msn.com,,(720)284-4074,,3400 S Lowell Blvd #10-202,"Denver, CO 80236-2430",Mother,Gish,Mohr
Sandoval,Alejandro,6,Margarita,Contreras,margs1626@gmail.com,,(720)434-9361,,4635 W Alaska Pl,"Denver, CO 80219",Mother,Castanzo,
Sandoval,Alejandro,6,Julian,Sandoval,jayj.sand85@gmail.com,(720)251-9603,(720)251-9603,,4635 W Alaska Pl,"Denver, CO 80219",Father,Castanzo,
Sandoval,Joshua,6,Celeste,Salazar,Celeese89@yahoo.com,(720)329-2215,,(303)692-2223,2620 S Federal Blvd #L,"Denver, CO 80219",Mother,Goldberg,
Sandoval,Julian,8,Margarita,Contreras,margs1626@gmail.com,,(720)434-9361,,4635 W Alaska Pl,"Denver, CO 80219",Mother,Passenant,
Sandoval,Julian,8,Julian,Sandoval,jayj.sand85@gmail.com,(720)251-9603,(720)251-9603,,4635 W Alaska Pl,"Denver, CO 80219",Father,Passenant,
Santos-Flores,Meagan,6,Yenife,Flores-Castro,jennyflores84@gmail.com,,(720)412-4733,,771 S Wolff St,"Denver, CO 80219",Mother,Santare,
Saucedo-Garcia,Maciel,8,Monica,Garcia-Ponce,,(720)882-7998,,,4225 Morrison Rd #206,"Denver, CO 80219",Mother,Glasspoole,McClellan
Saucedo-Garcia,Maciel,8,Maciel,Saucedo,,(720)882-7998,(720)882-6761,,4225 Morrison Rd #206,"Denver, CO 80219",Father,Glasspoole,McClellan
Scheuer,Evan,6,Mikaela,Scheuer,,(303)781-2399,(720)585-7296,,2929 W Floyd Ave #209,"Denver, CO 80236",Mother,Castanzo,
Silva-Ramirez,Kevin,6,Ulises,Lopez-Ramirez,,,,,2692 S Federal Blvd #308,"Denver, CO 80219-6046",Mother,Goldberg,
Silva-Ramirez,Kevin,6,Maria,Ramirez,,,(720)266-9854,,2692 S Federal Blvd #308,"Denver, CO 80219-6046",Mother,Goldberg,
Sinaloa-Robles,Lizbeth,6,Maria,Robles,,,(720)481-1208,,3760 W Kentucky Ave,"Denver, CO 80219",Mother,Knox,
Snipe,Julian,6,Dennison,Snipe,,,(720)809-4745,,2671 S Federal Blvd,"Denver, CO 80219-6011",Father,Budde,
Soriano,Natalie,6,Elizabeth,Soriano,jsbenitez2006@yahoo.com,,(720)940-5547,,737 S Vrain St,"Denver, CO 80219",Mother,Izaguirre,
Soriano,Natalie,6,Juan,Soriano-Benitez,soriano_contracting@yahoo.com,,(720)940-5547,,737 S Vrain St,"Denver, CO 80219",Father,Izaguirre,
Sosa,Jordan,6,Agapita,Apodaca,,(720)266-9429,(303)408-6572,,1310 S Yates St,"Denver, CO 80219-3636",Mother,Budde,Zayas
Sosa-Tapia,Fabian,7,Jesus,Sosa,,,(720)651-3211,,2303 S Winona Ct,"Denver, CO 80219",Father,Moreno,
Sosa-Tapia,Fabian,7,Alma,Tapia-Gonzalez,,,(720)662-8360,,2303 S Winona Ct,"Denver, CO 80219",Mother,Moreno,
Soto-Bardales,Monserrat,8,Beatriz,Bardales,bety.bardales1@gmail.com,,(720)569-1794,,2655 W Dartmouth Ave,"Denver, CO 80236-2834",Mother,Infanzon,
Stokes,Andrew,7,Justin,Stokes,jlstokey@gmail.com,,(303)570-5539,(303)295-6484,2792 S Knox Ct,"Denver, CO 80236",Father,Moreno,
Stokes,Andrew,7,Kelly,Stokes,Kellymstokes@yahoo.com,,(720)278-0163,(303)233-6322,2792 S Knox Ct,"Denver, CO 80236",Mother,Moreno,
Villalovas-Martinez,Aniah,7,Melissa,Villalovas,,,(720)447-5313,,1625 S Yates St,"Denver, CO 80219-4344",Mother,King,
Villalovas-Martinez,Aniah,7,Melissa,Villalovas,,,(720)447-5313,,4364 Lincoln St,"Denver, CO 80216",Mother,King,
Villanueva,Luis,7,Domingo,Villanueva,,,(303)669-8876,,2755 S Decatur St #D,"Denver, CO 80236-2663",Father,Lusa,
Villanueva,Luis,7,Nancy,Villanueva,nancyvillanueva31@yahoo.com,,(303)669-3395,,2755 S Decatur St #D,"Denver, CO 80236-2663",Mother,Lusa,
VillaSenor-Rios,Nelcy,7,Maria,Rios-Lepe,marialepe1125@gmail.com,,(720)577-9597,,820 S Federal Blvd #101,"Denver, CO 80219-3460",Mother,Abbott,
Villeda-Galeano,Emerson,7,Ingrid,Galeano,,,(720)675-2821,,4744 S Clay Ct,"Englewood, CO 80110-6348",Mother,Moreno,
Tapia-Gonzalez,Gislayne,7,Blanca,Tapia,biancatapia73@gmail.com,(720)709-8461,(720)709-8461,,1800 S Mabry Way,"Denver, CO 80219-4539",Mother,Haserodt,Mohr
Tapia-Gonzalez,Jaqueline,8,Blanca,Tapia,biancatapia73@gmail.com,(720)709-8461,(720)709-8461,,1800 S Mabry Way,"Denver, CO 80219-4539",Mother,Elledge,McClellan
Telles-Portillo,Diego,6,Sanjuana,Portillo,,,(720)422-6180,,1800 S Knox Ct,"Denver, CO 80219",Mother,Budde,Zayas
Telles-Portillo,Diego,6,Jose,Telles,,,(720)569-4924,,1800 S Knox Ct,"Denver, CO 80219",Father,Budde,Zayas
Telles-Portillo,Gabriel,8,Sanjuana,Portillo,,,(720)422-6180,,1800 S Knox Ct,"Denver, CO 80219",Mother,Mulkey,
Telles-Portillo,Gabriel,8,Jose,Telles,,,(720)569-4924,,1800 S Knox Ct,"Denver, CO 80219",Father,Mulkey,
Terrones-Salazar,Dania,8,Maria,Salazar,,,(720)982-8741,,124 Knox Ct,"Denver, CO 80219",Mother,Elledge,
Terrones-Salazar,Dania,8,Alfredo,Terrones,,,(720)378-1985,(303)296-3525,124 Knox Ct,"Denver, CO 80219",Father,Elledge,
Tomita,Isaias,6,Ruth,Tomita,ruth.tomita@denvergov.org,,(720)936-6879,(720)913-3434,2876 S Wolff St,"Denver, CO 80236-2011",Mother,Castanzo,
Tomita,Isaias,6,Uzziel,Tomita,,(720)936-6879x,(720)341-3994,,2876 S Wolff St,"Denver, CO 80236-2011",Father,Castanzo,
Torres,Liliana,6,Katrina,Archuleta,katrinacelina_89@yahoo.com,,(720)496-7218,,2500 S Perry St,"Denver, CO 80219",Mother,Izaguirre,
Trieu,Kaele,6,Nathan,Trieu,nathantrieu303@gmail.com,,(303)396-8232,(303)396-8232,1213 S Perry St,"Denver, CO 80219-3830",Father,Izaguirre,
Trujillo,Jayovani,7,Felishia,Martinez,martinezfelishia@gmail.com,,(720)436-6348,,1116 Kalamath St,"Denver, CO 80204",Mother,Moreno,
Urbina-Cota,Kevin,6,Yohana,Cota-Lozano,yohanacota24@gmail.com,,(720)212-7865,,3095 S Decatur St,"Denver, CO 80236",Mother,Castanzo,Zayas
Valdez,Lily,8,Rena,Valdez,,(720)229-8645,,,2907 W College Ave,"Denver, CO 80219",Mother,Infanzon,
Valenzuela,Yatzary,7,Guadalupe,Valenzuela,,(720)666-7133,(720)642-2381,,3547 W Exposition Ave,"Denver, CO 80219-2748",Mother,Haserodt,
Van,Timothy,7,Lan,Duong,thinhvan1970@yahoo.com,,(720)939-6885,(303)796-7000,3465 W Greenwood Pl,"Denver, CO 80236",Mother,Moreno,
Van,Timothy,7,Thinh,Van,thinhvan1970@yahoo.com,(720)939-6885,(720)771-0055,(303)794-7000,3465 W Greenwood Pl,"Denver, CO 80236",Father,Moreno,
Vanegas-Rosales,Alejandro,8,Rosaura,Rosales,,(979)618-0862,(720)271-2185,,3442 S Vrain St,"Denver, CO 80236-3714",Mother,Parks,
Vanegas-Rosales,Alejandro,8,Juan,Venegas-Hernandez,,,(720)364-3590,(720)904-8822,3442 S Vrain St,"Denver, CO 80236-3714",Father,Parks,
Vanegas-Rosales,Citlali,6,Rosaura,Rosales,,(979)618-0862,(720)271-2185,,3442 S Vrain St,"Denver, CO 80236-3714",Mother,Knox,
Vanegas-Rosales,Citlali,6,Juan,Venegas-Hernandez,,,(720)364-3590,(720)904-8822,3442 S Vrain St,"Denver, CO 80236-3714",Father,Knox,
Vaqueteros-Ortega,Salma,8,Alma,Salas,salas.alma33@gmail.com,,(720)435-9606,,1188 S Beach Ct,"Denver, CO 80219",Mother,Elledge,
Vargas,Angel,6,Iveth,Hernandez,iveth_hdez@hotmail.com,(720)238-2082,(303)260-9213,(303)806-5138,670 S Shoshone St,"Denver, CO 80223",Mother,Goldberg,
Vasquez-Saucedo,Camila,6,Petra,Saucedo,kokevasquez1999@gmail.com,(303)937-1813,(303)918-7466,,61 S Quitman St,"Denver, CO 80219",Mother,Dendle,
Vasquez-Saucedo,Camila,6,Martin,Vazques-Garcia,,,(303)918-7464,,61 S Quitman St,"Denver, CO 80219",Father,Dendle,
Vazquez,Johan,7,Valentina,Solorzano-Mata,agus.pab9@yahoo.com,,(720)641-7653,,1771 S Granby St,"Aurora , CO 80012-5734",Mother,Dubay,
Vazquez,Johan,7,Agustin,Vazquez-Ruiz,,(303)210-1249,(720)641-7653,,1771 S Granby St,"Aurora , CO 80012-5734",Father,Dubay,
Vazquez-Landeros,Derek,7,Maribel,Landeros,mlanderos31@gmail.com,,(720)645-3243,,3400 S Lowell Blvd #01302,"Denver, CO 80236-2400",Mother,Solomon,
Vazquez-Landeros,Derek,7,Pedro,Vazquez,,(720)809-9260,(720)645-5872,,3400 S Lowell Blvd #01302,"Denver, CO 80236-2400",Father,Solomon,
Venegas-Mendez,Ana,8,Agaizet,Mendez-Lopez,aguitamendez.092280@gmail.com,,(720)298-0217,(303)742-9000,5300 W Warren Ave #A8,"Denver, CO 80227",Mother,Parks,
Venegas-Mendez,Ana,8,Enrique,Venegas-Valle,,(720)979-9787,(720)298-0217,,5300 W Warren Ave #A8,"Denver, CO 80227",Father,Parks,
Villa,Cynthia,7,Clarissa,Pinela,clarissa_pinela@hotmail.com,,(575)914-1681,,3400 S Lowell Blvd #7-306,"Denver, CO 80236",Mother,Abbott,
Villalovas-Martinez,Aniah,7,Domingo,Martinez,Karen23torres@gmail.com,,(970)646-5935,,1625 S Yates St,"Denver, CO 80219-4344",Father,King,
Villalovas-Martinez,Aniah,7,Domingo,Martinez,Karen23torres@gmail.com,,(970)646-5935,,4364 Lincoln St,"Denver, CO 80216",Father,King,
Villalovas-Martinez,Aniah,7,Karen,Torres,Karen23torres@gmail.com,,(720)499-7186,,1625 S Yates St,"Denver, CO 80219-4344",Step-Mother,King,
Villalovas-Martinez,Aniah,7,Karen,Torres,Karen23torres@gmail.com,,(720)499-7186,,4364 Lincoln St,"Denver, CO 80216",Step-Mother,King,
Villeda-Galeano,Emerson,7,Balmore,Villeda,,,,,4744 S Clay Ct,"Englewood, CO 80110-6348",Father,Moreno,
Violante-Moran,Danae,8,Maria,Moran-DeViolante,,,(720)366-5987,,1886 S Raleigh St,"Denver, CO 80219",Mother,Nelsen,
Violante-Moran,Danae,8,Miguel,Violante-Diaz,,,(720)366-5987,,1886 S Raleigh St,"Denver, CO 80219",Father,Nelsen,
Vu,NamAdam,7,Lan,Nguyen,lanhdaotao@yahoo.com,,(720)341-3800,,3196 W Alabama Pl,"Denver, CO 80219-3938",Mother,Dubay,
Vu,NamAdam,7,Cuong,Vu,cuongvuquoc2003@yahoo.com,,(303)847-9863,,3196 W Alabama Pl,"Denver, CO 80219-3938",Father,Dubay,
Williams-Martinez,Donna,8,Sharie,Martinez,sharie_chica@yahoo.com,,(720)549-1977,,440 S Hazel Ct #2,"Denver, CO 80219",Mother,Coszalter,
Willis,Demaj-Dre,6,Kasandra,Jefferson,KJefferson56@gmail.com,(715)181-0917,(720)525-7132,(720)570-5400,2735 S Green Ct,"Denver, CO 80236-2520",Step-Mother,Budde,Zayas
Willis,Demaj-Dre,6,Gabriel,Willis,,,(720)518-0917,,2735 S Green Ct,"Denver, CO 80236-2520",Father,Budde,Zayas
Zamarripa-Reyes,Abigail,6,Elizabeth,Reyes-Villezca,liz.reyes333@yahoo.com,,(303)886-2639,,490 S Bryant St,"Denver, CO 80219-3023",Mother,Santare,
Zamarripa-Reyes,Abigail,6,Misael,Zamarripa,,,(303)886-3285,,490 S Bryant St,"Denver, CO 80219-3023",Father,Santare,
Zapata-Rodriguez,Kevin,7,Celia,Rodriguez,kz197280@gmail.com,,(720)298-1494,,4200 Morrison Rd #205,"Denver, CO 80219-2484",Mother,Moreno,
Zapata-Rodriguez,Kevin,7,Salvador,Zapata,,,(720)298-1494,(303)935-8575,4200 Morrison Rd #205,"Denver, CO 80219-2484",Father,Moreno,
Zenteno,Valentino,8,Viviana,Zenteno,vizenteno27@yahoo.com,,(720)980-5277,,3060 S Federal Blvd #203,"Denver, CO 80236",Sibling,Parks,
Zhang,Wuji,8,Hongfei,Zhang,674074536@qq.com,,(303)260-8591,,2550 S University Blvd #104,"Denver, CO 80210-6125",Mother,Pochette,McClellan